---
http_interactions:
- request:
    method: get
    uri: https://app.vzaar.localhost/api/v2/encoding_presets?per_page=2
    body:
      encoding: UTF-8
      string: ''
    headers:
      User-Agent:
      - HTTPClient/1.0 (2.8.2.4, ruby 2.3.1 (2016-04-26))
      Accept:
      - "*/*"
      Date:
      - Fri, 11 Nov 2016 14:42:31 GMT
      X-Auth-Token:
      - TUGXzNL17ypaougMYpR3
      X-Client-Id:
      - lair-tend72
      Content-Type:
      - application/json
  response:
    status:
      code: 200
      message: OK
    headers:
      Server:
      - nginx/1.10.1
      Date:
      - Fri, 11 Nov 2016 14:42:31 GMT
      Content-Type:
      - application/json
      Content-Length:
      - '1054'
      Connection:
      - keep-alive
      X-Ratelimit-Limit:
      - '200'
      X-Ratelimit-Remaining:
      - '197'
      X-Ratelimit-Reset:
      - '1478875411'
      X-Ratelimit-Reset-In:
      - 60 seconds
      Cache-Control:
      - no-store, must-revalidate, private, max-age=0
      X-Request-Id:
      - d610559e-096f-409d-98d3-0ca02dd242d9
      X-Runtime:
      - '0.060800'
      Set-Cookie:
      - __profilin=p%3Dt; path=/
      - __profilin=p%3Dt; path=/
      - __profilin=p%3Dt; path=/
      X-Miniprofiler-Ids:
      - '["fbt2z00cijj7mhnaqx46","yibtuiqnohudk1d26xvg","cpo3oiqmi683pkcaj816","dtxr2heeicch5rud7pjt","b4scoosnvmo0xvyqw8fy","58r4vfxumrhgue7kbsai","5dfv6js4ggxyc9qp8qwk","luelw09036g1c3l24a6i","racr2kqe0uft8glynfol","yfqme9j3k1haf6v4sm35"]'
    body:
      encoding: UTF-8
      string: '{"data":[{"id":4,"name":"SD","description":"540p","output_format":"mp4","bitrate_kbps":1944,"long_dimension":960,"video_codec":"libx264","profile":"main","frame_rate":"29.97","keyframe":60,"audio_bitrate_kbps":128,"audio_channels":2,"audio_sample_rate":44100,"max_bitrate_kbps":null,"keyframe_period":null,"created_at":"2016-11-09T11:01:38.000Z","updated_at":"2016-11-09T11:01:38.000Z"},{"id":3,"name":"SD","description":"360p","output_format":"mp4","bitrate_kbps":800,"long_dimension":640,"video_codec":"libx264","profile":"main","frame_rate":"29.97","keyframe":60,"audio_bitrate_kbps":128,"audio_channels":2,"audio_sample_rate":44100,"max_bitrate_kbps":null,"keyframe_period":null,"created_at":"2016-11-09T11:01:38.000Z","updated_at":"2016-11-09T11:01:38.000Z"}],"meta":{"total_count":4,"links":{"first":"https://app.vzaar.localhost/api/v2/encoding_presets?page=1&per_page=2","next":"https://app.vzaar.localhost/api/v2/encoding_presets?page=2&per_page=2","previous":null,"last":"https://app.vzaar.localhost/api/v2/encoding_presets?page=2&per_page=2"}}}'
    http_version: 
  recorded_at: Fri, 11 Nov 2016 14:42:31 GMT
- request:
    method: get
    uri: https://app.vzaar.localhost/api/v2/encoding_presets
    body:
      encoding: UTF-8
      string: ''
    headers:
      User-Agent:
      - HTTPClient/1.0 (2.8.2.4, ruby 2.3.1 (2016-04-26))
      Accept:
      - "*/*"
      Date:
      - Fri, 11 Nov 2016 14:42:31 GMT
      X-Auth-Token:
      - TUGXzNL17ypaougMYpR3
      X-Client-Id:
      - lair-tend72
      Content-Type:
      - application/json
  response:
    status:
      code: 200
      message: OK
    headers:
      Server:
      - nginx/1.10.1
      Date:
      - Fri, 11 Nov 2016 14:42:31 GMT
      Content-Type:
      - application/json
      Content-Length:
      - '1053'
      Connection:
      - keep-alive
      X-Ratelimit-Limit:
      - '200'
      X-Ratelimit-Remaining:
      - '196'
      X-Ratelimit-Reset:
      - '1478875411'
      X-Ratelimit-Reset-In:
      - 60 seconds
      Cache-Control:
      - no-store, must-revalidate, private, max-age=0
      X-Request-Id:
      - d57e4578-f71e-4b5a-8026-ae6de76aa33d
      X-Runtime:
      - '0.059076'
      Set-Cookie:
      - __profilin=p%3Dt; path=/
      - __profilin=p%3Dt; path=/
      - __profilin=p%3Dt; path=/
      X-Miniprofiler-Ids:
      - '["ioizh3ql53z3f4q50wbo","yibtuiqnohudk1d26xvg","cpo3oiqmi683pkcaj816","dtxr2heeicch5rud7pjt","b4scoosnvmo0xvyqw8fy","58r4vfxumrhgue7kbsai","5dfv6js4ggxyc9qp8qwk","luelw09036g1c3l24a6i","racr2kqe0uft8glynfol","yfqme9j3k1haf6v4sm35"]'
    body:
      encoding: UTF-8
      string: '{"data":[{"id":2,"name":"LD","description":"270p","output_format":"mp4","bitrate_kbps":400,"long_dimension":480,"video_codec":"libx264","profile":"main","frame_rate":"29.97","keyframe":60,"audio_bitrate_kbps":128,"audio_channels":2,"audio_sample_rate":44100,"max_bitrate_kbps":null,"keyframe_period":null,"created_at":"2016-11-09T11:01:38.000Z","updated_at":"2016-11-09T11:01:38.000Z"},{"id":1,"name":"ULD","description":"234p","output_format":"mp4","bitrate_kbps":200,"long_dimension":416,"video_codec":"libx264","profile":"main","frame_rate":"12.0","keyframe":60,"audio_bitrate_kbps":128,"audio_channels":2,"audio_sample_rate":44100,"max_bitrate_kbps":null,"keyframe_period":null,"created_at":"2016-11-09T11:01:38.000Z","updated_at":"2016-11-09T11:01:38.000Z"}],"meta":{"total_count":4,"links":{"first":"https://app.vzaar.localhost/api/v2/encoding_presets?page=1&per_page=2","next":null,"previous":"https://app.vzaar.localhost/api/v2/encoding_presets?page=1&per_page=2","last":"https://app.vzaar.localhost/api/v2/encoding_presets?page=2&per_page=2"}}}'
    http_version: 
  recorded_at: Fri, 11 Nov 2016 14:42:31 GMT
recorded_with: VCR 3.0.3
