---
http_interactions:
- request:
    method: get
    uri: https://app.vzaar.localhost/api/v2/encoding_presets?per_page=2
    body:
      encoding: UTF-8
      string: ''
    headers:
      User-Agent:
      - HTTPClient/1.0 (2.8.2.4, ruby 2.3.1 (2016-04-26))
      Accept:
      - "*/*"
      Date:
      - Tue, 29 Nov 2016 12:51:22 GMT
      X-Auth-Token:
      - TUGXzNL17ypaougMYpR3
      X-Client-Id:
      - lair-tend72
      Content-Type:
      - application/json
  response:
    status:
      code: 200
      message: OK
    headers:
      Server:
      - nginx/1.10.1
      Date:
      - Tue, 29 Nov 2016 12:51:23 GMT
      Content-Type:
      - application/json
      Content-Length:
      - '1082'
      Connection:
      - keep-alive
      X-Ratelimit-Limit:
      - '200'
      X-Ratelimit-Remaining:
      - '199'
      X-Ratelimit-Reset:
      - '1480423943'
      X-Ratelimit-Reset-In:
      - 60 seconds
      Cache-Control:
      - no-store, must-revalidate, private, max-age=0
      X-Request-Id:
      - e961e716-383a-4db8-95d3-e8ae1da6444c
      X-Runtime:
      - '0.734981'
      Set-Cookie:
      - __profilin=p%3Dt; path=/
      - __profilin=p%3Dt; path=/
      - __profilin=p%3Dt; path=/
      X-Miniprofiler-Ids:
      - '["r6m61luprumtdr4y6y1i","i2tpnyrwhgkxbjqufub6","d915a38kjxdh0er1pp2o","lasu0jk0xumxtls2wozm","r7hyarvi9ulu86olh4yl","tjz7lwof2rroauok49b","oq57z4vll5hfxq548thx","4btsivncw9hss3vfpynk","5l14cevyny3muo8iyuhk","sb8t1ddfhoyeea9dd2wo"]'
    body:
      encoding: UTF-8
      string: '{"data":[{"id":9,"name":"2.5K UHD","description":"1440p","output_format":"mp4","bitrate_kbps":8000,"max_bitrate_kbps":11000,"long_dimension":2560,"video_codec":"libx264","profile":"high","frame_rate_upper_threshold":"29.97","keyframe_upper_threshold":60,"audio_bitrate_kbps":128,"audio_channels":2,"audio_sample_rate":44100,"created_at":"2016-11-24T14:45:00.000Z","updated_at":"2016-11-24T14:45:00.000Z"},{"id":2,"name":"DNE","description":"Source","output_format":"mp4","bitrate_kbps":null,"max_bitrate_kbps":null,"long_dimension":null,"video_codec":null,"profile":null,"frame_rate_upper_threshold":null,"keyframe_upper_threshold":null,"audio_bitrate_kbps":null,"audio_channels":null,"audio_sample_rate":null,"created_at":"2016-11-09T11:01:38.000Z","updated_at":"2016-11-09T11:01:38.000Z"}],"meta":{"total_count":10,"links":{"first":"https://app.vzaar.localhost/api/v2/encoding_presets?page=1&per_page=2","next":"https://app.vzaar.localhost/api/v2/encoding_presets?page=2&per_page=2","previous":null,"last":"https://app.vzaar.localhost/api/v2/encoding_presets?page=5&per_page=2"}}}'
    http_version: 
  recorded_at: Tue, 29 Nov 2016 12:51:23 GMT
- request:
    method: get
    uri: https://app.vzaar.localhost/api/v2/encoding_presets
    body:
      encoding: UTF-8
      string: ''
    headers:
      User-Agent:
      - HTTPClient/1.0 (2.8.2.4, ruby 2.3.1 (2016-04-26))
      Accept:
      - "*/*"
      Date:
      - Tue, 29 Nov 2016 12:51:23 GMT
      X-Auth-Token:
      - TUGXzNL17ypaougMYpR3
      X-Client-Id:
      - lair-tend72
      Content-Type:
      - application/json
  response:
    status:
      code: 200
      message: OK
    headers:
      Server:
      - nginx/1.10.1
      Date:
      - Tue, 29 Nov 2016 12:51:23 GMT
      Content-Type:
      - application/json
      Content-Length:
      - '1145'
      Connection:
      - keep-alive
      X-Ratelimit-Limit:
      - '200'
      X-Ratelimit-Remaining:
      - '198'
      X-Ratelimit-Reset:
      - '1480423943'
      X-Ratelimit-Reset-In:
      - 60 seconds
      Cache-Control:
      - no-store, must-revalidate, private, max-age=0
      X-Request-Id:
      - 2c40b4a9-dba0-4e20-b74d-c8d4ace5c6ad
      X-Runtime:
      - '0.078053'
      Set-Cookie:
      - __profilin=p%3Dt; path=/
      - __profilin=p%3Dt; path=/
      - __profilin=p%3Dt; path=/
      X-Miniprofiler-Ids:
      - '["zeb6f2e3i94ncgkso097","i2tpnyrwhgkxbjqufub6","d915a38kjxdh0er1pp2o","lasu0jk0xumxtls2wozm","r7hyarvi9ulu86olh4yl","tjz7lwof2rroauok49b","oq57z4vll5hfxq548thx","4btsivncw9hss3vfpynk","5l14cevyny3muo8iyuhk","sb8t1ddfhoyeea9dd2wo"]'
    body:
      encoding: UTF-8
      string: '{"data":[{"id":3,"name":"ULD","description":"234p","output_format":"mp4","bitrate_kbps":145,"max_bitrate_kbps":200,"long_dimension":416,"video_codec":"libx264","profile":"baseline","frame_rate_upper_threshold":"12.0","keyframe_upper_threshold":60,"audio_bitrate_kbps":128,"audio_channels":2,"audio_sample_rate":44100,"created_at":"2016-10-24T12:36:47.000Z","updated_at":"2016-10-24T12:36:47.000Z"},{"id":4,"name":"LD","description":"270p","output_format":"mp4","bitrate_kbps":365,"max_bitrate_kbps":500,"long_dimension":480,"video_codec":"libx264","profile":"baseline","frame_rate_upper_threshold":"29.97","keyframe_upper_threshold":60,"audio_bitrate_kbps":128,"audio_channels":2,"audio_sample_rate":44100,"created_at":"2016-10-24T12:36:47.000Z","updated_at":"2016-10-24T12:36:47.000Z"}],"meta":{"total_count":10,"links":{"first":"https://app.vzaar.localhost/api/v2/encoding_presets?page=1&per_page=2","next":"https://app.vzaar.localhost/api/v2/encoding_presets?page=3&per_page=2","previous":"https://app.vzaar.localhost/api/v2/encoding_presets?page=1&per_page=2","last":"https://app.vzaar.localhost/api/v2/encoding_presets?page=5&per_page=2"}}}'
    http_version: 
  recorded_at: Tue, 29 Nov 2016 12:51:23 GMT
- request:
    method: get
    uri: https://app.vzaar.localhost/api/v2/encoding_presets
    body:
      encoding: UTF-8
      string: ''
    headers:
      User-Agent:
      - HTTPClient/1.0 (2.8.2.4, ruby 2.3.1 (2016-04-26))
      Accept:
      - "*/*"
      Date:
      - Tue, 29 Nov 2016 12:51:23 GMT
      X-Auth-Token:
      - TUGXzNL17ypaougMYpR3
      X-Client-Id:
      - lair-tend72
      Content-Type:
      - application/json
  response:
    status:
      code: 200
      message: OK
    headers:
      Server:
      - nginx/1.10.1
      Date:
      - Tue, 29 Nov 2016 12:51:23 GMT
      Content-Type:
      - application/json
      Content-Length:
      - '1139'
      Connection:
      - keep-alive
      X-Ratelimit-Limit:
      - '200'
      X-Ratelimit-Remaining:
      - '197'
      X-Ratelimit-Reset:
      - '1480423943'
      X-Ratelimit-Reset-In:
      - 60 seconds
      Cache-Control:
      - no-store, must-revalidate, private, max-age=0
      X-Request-Id:
      - b9474002-ff06-4d7a-b470-1f722a4f05ef
      X-Runtime:
      - '0.065744'
      Set-Cookie:
      - __profilin=p%3Dt; path=/
      - __profilin=p%3Dt; path=/
      - __profilin=p%3Dt; path=/
      X-Miniprofiler-Ids:
      - '["ef1g4jcj5kjrnyhlzrmi","i2tpnyrwhgkxbjqufub6","d915a38kjxdh0er1pp2o","lasu0jk0xumxtls2wozm","r7hyarvi9ulu86olh4yl","tjz7lwof2rroauok49b","oq57z4vll5hfxq548thx","4btsivncw9hss3vfpynk","5l14cevyny3muo8iyuhk","sb8t1ddfhoyeea9dd2wo"]'
    body:
      encoding: UTF-8
      string: '{"data":[{"id":5,"name":"SD","description":"360p","output_format":"mp4","bitrate_kbps":730,"max_bitrate_kbps":900,"long_dimension":640,"video_codec":"libx264","profile":"main","frame_rate_upper_threshold":"29.97","keyframe_upper_threshold":60,"audio_bitrate_kbps":128,"audio_channels":2,"audio_sample_rate":44100,"created_at":"2016-10-24T12:36:47.000Z","updated_at":"2016-10-24T12:36:47.000Z"},{"id":6,"name":"SD","description":"540p","output_format":"mp4","bitrate_kbps":1200,"max_bitrate_kbps":1500,"long_dimension":960,"video_codec":"libx264","profile":"main","frame_rate_upper_threshold":"29.97","keyframe_upper_threshold":60,"audio_bitrate_kbps":128,"audio_channels":2,"audio_sample_rate":44100,"created_at":"2016-10-24T12:36:47.000Z","updated_at":"2016-10-24T12:36:47.000Z"}],"meta":{"total_count":10,"links":{"first":"https://app.vzaar.localhost/api/v2/encoding_presets?page=1&per_page=2","next":"https://app.vzaar.localhost/api/v2/encoding_presets?page=4&per_page=2","previous":"https://app.vzaar.localhost/api/v2/encoding_presets?page=2&per_page=2","last":"https://app.vzaar.localhost/api/v2/encoding_presets?page=5&per_page=2"}}}'
    http_version: 
  recorded_at: Tue, 29 Nov 2016 12:51:23 GMT
- request:
    method: get
    uri: https://app.vzaar.localhost/api/v2/encoding_presets
    body:
      encoding: UTF-8
      string: ''
    headers:
      User-Agent:
      - HTTPClient/1.0 (2.8.2.4, ruby 2.3.1 (2016-04-26))
      Accept:
      - "*/*"
      Date:
      - Tue, 29 Nov 2016 12:51:23 GMT
      X-Auth-Token:
      - TUGXzNL17ypaougMYpR3
      X-Client-Id:
      - lair-tend72
      Content-Type:
      - application/json
  response:
    status:
      code: 200
      message: OK
    headers:
      Server:
      - nginx/1.10.1
      Date:
      - Tue, 29 Nov 2016 12:51:23 GMT
      Content-Type:
      - application/json
      Content-Length:
      - '1144'
      Connection:
      - keep-alive
      X-Ratelimit-Limit:
      - '200'
      X-Ratelimit-Remaining:
      - '196'
      X-Ratelimit-Reset:
      - '1480423943'
      X-Ratelimit-Reset-In:
      - 60 seconds
      Cache-Control:
      - no-store, must-revalidate, private, max-age=0
      X-Request-Id:
      - c9c890ef-2582-4205-af6a-1d3c3bef56ff
      X-Runtime:
      - '0.062228'
      Set-Cookie:
      - __profilin=p%3Dt; path=/
      - __profilin=p%3Dt; path=/
      - __profilin=p%3Dt; path=/
      X-Miniprofiler-Ids:
      - '["4gxiuimr80v0zcdql379","i2tpnyrwhgkxbjqufub6","d915a38kjxdh0er1pp2o","lasu0jk0xumxtls2wozm","r7hyarvi9ulu86olh4yl","tjz7lwof2rroauok49b","oq57z4vll5hfxq548thx","4btsivncw9hss3vfpynk","5l14cevyny3muo8iyuhk","sb8t1ddfhoyeea9dd2wo"]'
    body:
      encoding: UTF-8
      string: '{"data":[{"id":7,"name":"HD","description":"720p","output_format":"mp4","bitrate_kbps":2500,"max_bitrate_kbps":3500,"long_dimension":1280,"video_codec":"libx264","profile":"high","frame_rate_upper_threshold":"29.97","keyframe_upper_threshold":60,"audio_bitrate_kbps":128,"audio_channels":2,"audio_sample_rate":44100,"created_at":"2016-10-24T12:36:47.000Z","updated_at":"2016-11-25T10:20:12.000Z"},{"id":8,"name":"HD","description":"1080p","output_format":"mp4","bitrate_kbps":3500,"max_bitrate_kbps":5000,"long_dimension":1920,"video_codec":"libx264","profile":"high","frame_rate_upper_threshold":"29.97","keyframe_upper_threshold":60,"audio_bitrate_kbps":128,"audio_channels":2,"audio_sample_rate":44100,"created_at":"2016-10-24T12:36:47.000Z","updated_at":"2016-10-24T12:36:47.000Z"}],"meta":{"total_count":10,"links":{"first":"https://app.vzaar.localhost/api/v2/encoding_presets?page=1&per_page=2","next":"https://app.vzaar.localhost/api/v2/encoding_presets?page=5&per_page=2","previous":"https://app.vzaar.localhost/api/v2/encoding_presets?page=3&per_page=2","last":"https://app.vzaar.localhost/api/v2/encoding_presets?page=5&per_page=2"}}}'
    http_version: 
  recorded_at: Tue, 29 Nov 2016 12:51:23 GMT
- request:
    method: get
    uri: https://app.vzaar.localhost/api/v2/encoding_presets
    body:
      encoding: UTF-8
      string: ''
    headers:
      User-Agent:
      - HTTPClient/1.0 (2.8.2.4, ruby 2.3.1 (2016-04-26))
      Accept:
      - "*/*"
      Date:
      - Tue, 29 Nov 2016 12:51:23 GMT
      X-Auth-Token:
      - TUGXzNL17ypaougMYpR3
      X-Client-Id:
      - lair-tend72
      Content-Type:
      - application/json
  response:
    status:
      code: 200
      message: OK
    headers:
      Server:
      - nginx/1.10.1
      Date:
      - Tue, 29 Nov 2016 12:51:24 GMT
      Content-Type:
      - application/json
      Content-Length:
      - '1092'
      Connection:
      - keep-alive
      X-Ratelimit-Limit:
      - '200'
      X-Ratelimit-Remaining:
      - '195'
      X-Ratelimit-Reset:
      - '1480423944'
      X-Ratelimit-Reset-In:
      - 60 seconds
      Cache-Control:
      - no-store, must-revalidate, private, max-age=0
      X-Request-Id:
      - 264b1697-e45f-472b-8457-ed7696b005d3
      X-Runtime:
      - '0.068399'
      Set-Cookie:
      - __profilin=p%3Dt; path=/
      - __profilin=p%3Dt; path=/
      - __profilin=p%3Dt; path=/
      X-Miniprofiler-Ids:
      - '["w7mhg0ha5img5ent1d94","i2tpnyrwhgkxbjqufub6","d915a38kjxdh0er1pp2o","lasu0jk0xumxtls2wozm","r7hyarvi9ulu86olh4yl","tjz7lwof2rroauok49b","oq57z4vll5hfxq548thx","4btsivncw9hss3vfpynk","5l14cevyny3muo8iyuhk","sb8t1ddfhoyeea9dd2wo"]'
    body:
      encoding: UTF-8
      string: '{"data":[{"id":10,"name":"4k UHD","description":"2160p","output_format":"mp4","bitrate_kbps":11000,"max_bitrate_kbps":17200,"long_dimension":3840,"video_codec":"libx264","profile":"high","frame_rate_upper_threshold":"29.97","keyframe_upper_threshold":60,"audio_bitrate_kbps":128,"audio_channels":2,"audio_sample_rate":44100,"created_at":"2016-10-24T12:36:47.000Z","updated_at":"2016-10-24T12:36:47.000Z"},{"id":11,"name":"8K
        UHD","description":"4320p","output_format":"mp4","bitrate_kbps":35000,"max_bitrate_kbps":50000,"long_dimension":7680,"video_codec":"libx264","profile":"high","frame_rate_upper_threshold":"29.97","keyframe_upper_threshold":60,"audio_bitrate_kbps":128,"audio_channels":2,"audio_sample_rate":44100,"created_at":"2016-10-24T12:36:47.000Z","updated_at":"2016-10-24T12:36:47.000Z"}],"meta":{"total_count":10,"links":{"first":"https://app.vzaar.localhost/api/v2/encoding_presets?page=1&per_page=2","next":null,"previous":"https://app.vzaar.localhost/api/v2/encoding_presets?page=4&per_page=2","last":"https://app.vzaar.localhost/api/v2/encoding_presets?page=5&per_page=2"}}}'
    http_version: 
  recorded_at: Tue, 29 Nov 2016 12:51:24 GMT
recorded_with: VCR 3.0.3
