---
http_interactions:
- request:
    method: get
    uri: https://app.vzaar.localhost/api/v2/encoding_presets?per_page=3
    body:
      encoding: UTF-8
      string: ''
    headers:
      User-Agent:
      - HTTPClient/1.0 (2.8.2.4, ruby 2.3.1 (2016-04-26))
      Accept:
      - "*/*"
      Date:
      - Fri, 18 Nov 2016 11:20:06 GMT
      X-Auth-Token:
      - TUGXzNL17ypaougMYpR3
      X-Client-Id:
      - lair-tend72
      Content-Type:
      - application/json
  response:
    status:
      code: 200
      message: OK
    headers:
      Server:
      - nginx/1.10.1
      Date:
      - Fri, 18 Nov 2016 11:20:06 GMT
      Content-Type:
      - application/json
      Content-Length:
      - '1430'
      Connection:
      - keep-alive
      X-Ratelimit-Limit:
      - '200'
      X-Ratelimit-Remaining:
      - '199'
      X-Ratelimit-Reset:
      - '1479468066'
      X-Ratelimit-Reset-In:
      - 60 seconds
      Cache-Control:
      - no-store, must-revalidate, private, max-age=0
      X-Request-Id:
      - e24a118c-e303-4650-94dd-39fd5ced7ef1
      X-Runtime:
      - '0.070907'
      Set-Cookie:
      - __profilin=p%3Dt; path=/
      - __profilin=p%3Dt; path=/
      - __profilin=p%3Dt; path=/
      X-Miniprofiler-Ids:
      - '["74ihxztl1pp13wp8jc76","yibtuiqnohudk1d26xvg","cpo3oiqmi683pkcaj816","dtxr2heeicch5rud7pjt","b4scoosnvmo0xvyqw8fy","58r4vfxumrhgue7kbsai","5dfv6js4ggxyc9qp8qwk","luelw09036g1c3l24a6i","racr2kqe0uft8glynfol","yfqme9j3k1haf6v4sm35"]'
    body:
      encoding: UTF-8
      string: '{"data":[{"id":9,"name":"DNE","description":"Source","output_format":"mp4","bitrate_kbps":null,"long_dimension":null,"video_codec":null,"profile":null,"frame_rate":null,"keyframe":null,"audio_bitrate_kbps":null,"audio_channels":null,"audio_sample_rate":null,"max_bitrate_kbps":null,"keyframe_period":null,"created_at":"2016-11-09T11:01:38.000Z","updated_at":"2016-11-09T11:01:38.000Z"},{"id":1,"name":"ULD","description":"234p","output_format":"mp4","bitrate_kbps":200,"long_dimension":416,"video_codec":"libx264","profile":"main","frame_rate":"12.0","keyframe":60,"audio_bitrate_kbps":128,"audio_channels":2,"audio_sample_rate":44100,"max_bitrate_kbps":null,"keyframe_period":null,"created_at":"2016-11-09T11:01:38.000Z","updated_at":"2016-11-09T11:01:38.000Z"},{"id":2,"name":"LD","description":"270p","output_format":"mp4","bitrate_kbps":400,"long_dimension":480,"video_codec":"libx264","profile":"main","frame_rate":"29.97","keyframe":60,"audio_bitrate_kbps":128,"audio_channels":2,"audio_sample_rate":44100,"max_bitrate_kbps":null,"keyframe_period":null,"created_at":"2016-11-09T11:01:38.000Z","updated_at":"2016-11-09T11:01:38.000Z"}],"meta":{"total_count":9,"links":{"first":"https://app.vzaar.localhost/api/v2/encoding_presets?page=1&per_page=3","next":"https://app.vzaar.localhost/api/v2/encoding_presets?page=2&per_page=3","previous":null,"last":"https://app.vzaar.localhost/api/v2/encoding_presets?page=3&per_page=3"}}}'
    http_version: 
  recorded_at: Fri, 18 Nov 2016 11:20:06 GMT
- request:
    method: get
    uri: https://app.vzaar.localhost/api/v2/ingest_recipes/8
    body:
      encoding: UTF-8
      string: ''
    headers:
      User-Agent:
      - HTTPClient/1.0 (2.8.2.4, ruby 2.3.1 (2016-04-26))
      Accept:
      - "*/*"
      Date:
      - Fri, 18 Nov 2016 11:20:06 GMT
      X-Auth-Token:
      - TUGXzNL17ypaougMYpR3
      X-Client-Id:
      - lair-tend72
      Content-Type:
      - application/json
  response:
    status:
      code: 200
      message: OK
    headers:
      Server:
      - nginx/1.10.1
      Date:
      - Fri, 18 Nov 2016 11:20:06 GMT
      Content-Type:
      - application/json
      Content-Length:
      - '1139'
      Connection:
      - keep-alive
      X-Ratelimit-Limit:
      - '200'
      X-Ratelimit-Remaining:
      - '199'
      X-Ratelimit-Reset:
      - '1479468066'
      X-Ratelimit-Reset-In:
      - 60 seconds
      Cache-Control:
      - no-store, must-revalidate, private, max-age=0
      X-Request-Id:
      - 6bc70154-0e56-4836-8e4f-99342f42ca3a
      X-Runtime:
      - '0.058496'
      Set-Cookie:
      - __profilin=p%3Dt; path=/
      - __profilin=p%3Dt; path=/
      - __profilin=p%3Dt; path=/
      X-Miniprofiler-Ids:
      - '["2jlwrbmmv0o19rr0hynq","yibtuiqnohudk1d26xvg","cpo3oiqmi683pkcaj816","dtxr2heeicch5rud7pjt","b4scoosnvmo0xvyqw8fy","58r4vfxumrhgue7kbsai","5dfv6js4ggxyc9qp8qwk","luelw09036g1c3l24a6i","racr2kqe0uft8glynfol","yfqme9j3k1haf6v4sm35"]'
    body:
      encoding: UTF-8
      string: '{"data":{"id":8,"name":"new-recipe","recipe_type":"new_video","description":"the
        new recipe","account_id":79357,"user_id":79357,"default":true,"multipass":false,"frame_grab_time":"5.5","generate_animated_thumb":true,"generate_sprite":true,"use_watermark":true,"send_to_youtube":true,"encoding_presets":[{"id":9,"name":"DNE","description":"Source","output_format":"mp4","bitrate_kbps":null,"long_dimension":null,"video_codec":null,"profile":null,"frame_rate":null,"keyframe":null,"audio_bitrate_kbps":null,"audio_channels":null,"audio_sample_rate":null,"max_bitrate_kbps":null,"keyframe_period":null,"created_at":"2016-11-09T11:01:38.000Z","updated_at":"2016-11-09T11:01:38.000Z"},{"id":1,"name":"ULD","description":"234p","output_format":"mp4","bitrate_kbps":200,"long_dimension":416,"video_codec":"libx264","profile":"main","frame_rate":"12.0","keyframe":60,"audio_bitrate_kbps":128,"audio_channels":2,"audio_sample_rate":44100,"max_bitrate_kbps":null,"keyframe_period":null,"created_at":"2016-11-09T11:01:38.000Z","updated_at":"2016-11-09T11:01:38.000Z"}],"created_at":"2016-11-18T10:25:47.000Z","updated_at":"2016-11-18T10:25:47.000Z"}}'
    http_version: 
  recorded_at: Fri, 18 Nov 2016 11:20:06 GMT
- request:
    method: patch
    uri: https://app.vzaar.localhost/api/v2/ingest_recipes/8
    body:
      encoding: UTF-8
      string: '{"id":8,"name":"updated","recipe_type":"new_video","description":"the
        new recipe","account_id":79357,"user_id":79357,"default":true,"multipass":false,"frame_grab_time":"5.5","generate_animated_thumb":true,"generate_sprite":true,"use_watermark":true,"send_to_youtube":true,"encoding_preset_ids":"9,1,2","created_at":"2016-11-18T10:25:47.000Z","updated_at":"2016-11-18T10:25:47.000Z"}'
    headers:
      User-Agent:
      - HTTPClient/1.0 (2.8.2.4, ruby 2.3.1 (2016-04-26))
      Accept:
      - "*/*"
      Date:
      - Fri, 18 Nov 2016 11:20:06 GMT
      X-Auth-Token:
      - TUGXzNL17ypaougMYpR3
      X-Client-Id:
      - lair-tend72
      Content-Type:
      - application/json
  response:
    status:
      code: 200
      message: OK
    headers:
      Server:
      - nginx/1.10.1
      Date:
      - Fri, 18 Nov 2016 11:20:06 GMT
      Content-Type:
      - application/json
      Content-Length:
      - '1513'
      Connection:
      - keep-alive
      X-Ratelimit-Limit:
      - '200'
      X-Ratelimit-Remaining:
      - '199'
      X-Ratelimit-Reset:
      - '1479468066'
      X-Ratelimit-Reset-In:
      - 60 seconds
      Cache-Control:
      - no-store, must-revalidate, private, max-age=0
      X-Request-Id:
      - 41d9b3f2-4a92-41d9-b9b3-ee7de8ba1479
      X-Runtime:
      - '0.104918'
      Set-Cookie:
      - __profilin=p%3Dt; path=/
      - __profilin=p%3Dt; path=/
      - __profilin=p%3Dt; path=/
      X-Miniprofiler-Ids:
      - '["jago7uvdmw6qzhb7a7wc","yibtuiqnohudk1d26xvg","cpo3oiqmi683pkcaj816","dtxr2heeicch5rud7pjt","b4scoosnvmo0xvyqw8fy","58r4vfxumrhgue7kbsai","5dfv6js4ggxyc9qp8qwk","luelw09036g1c3l24a6i","racr2kqe0uft8glynfol","yfqme9j3k1haf6v4sm35"]'
    body:
      encoding: UTF-8
      string: '{"data":{"id":8,"name":"updated","recipe_type":"new_video","description":"the
        new recipe","account_id":79357,"user_id":79357,"default":true,"multipass":false,"frame_grab_time":"5.5","generate_animated_thumb":true,"generate_sprite":true,"use_watermark":true,"send_to_youtube":true,"encoding_presets":[{"id":9,"name":"DNE","description":"Source","output_format":"mp4","bitrate_kbps":null,"long_dimension":null,"video_codec":null,"profile":null,"frame_rate":null,"keyframe":null,"audio_bitrate_kbps":null,"audio_channels":null,"audio_sample_rate":null,"max_bitrate_kbps":null,"keyframe_period":null,"created_at":"2016-11-09T11:01:38.000Z","updated_at":"2016-11-09T11:01:38.000Z"},{"id":1,"name":"ULD","description":"234p","output_format":"mp4","bitrate_kbps":200,"long_dimension":416,"video_codec":"libx264","profile":"main","frame_rate":"12.0","keyframe":60,"audio_bitrate_kbps":128,"audio_channels":2,"audio_sample_rate":44100,"max_bitrate_kbps":null,"keyframe_period":null,"created_at":"2016-11-09T11:01:38.000Z","updated_at":"2016-11-09T11:01:38.000Z"},{"id":2,"name":"LD","description":"270p","output_format":"mp4","bitrate_kbps":400,"long_dimension":480,"video_codec":"libx264","profile":"main","frame_rate":"29.97","keyframe":60,"audio_bitrate_kbps":128,"audio_channels":2,"audio_sample_rate":44100,"max_bitrate_kbps":null,"keyframe_period":null,"created_at":"2016-11-09T11:01:38.000Z","updated_at":"2016-11-09T11:01:38.000Z"}],"created_at":"2016-11-18T10:25:47.000Z","updated_at":"2016-11-18T11:20:06.490Z"}}'
    http_version: 
  recorded_at: Fri, 18 Nov 2016 11:20:06 GMT
recorded_with: VCR 3.0.3
