---
http_interactions:
- request:
    method: get
    uri: https://app.vzaar.localhost/api/v2/feeds/playlists?per_page=2
    body:
      encoding: UTF-8
      string: ''
    headers:
      User-Agent:
      - HTTPClient/1.0 (2.8.3, ruby 2.3.0 (2015-12-25))
      Accept:
      - "*/*"
      Date:
      - Mon, 24 Apr 2017 13:30:58 GMT
      X-Auth-Token:
      - TUGXzNL17ypaougMYpR3
      X-Client-Id:
      - lair-tend72
      Content-Type:
      - application/json
  response:
    status:
      code: 200
      message: OK
    headers:
      Server:
      - nginx/1.8.0
      Date:
      - Mon, 24 Apr 2017 13:30:58 GMT
      Content-Type:
      - application/json
      Content-Length:
      - '1485'
      Connection:
      - keep-alive
      X-Ratelimit-Limit:
      - '200'
      X-Ratelimit-Remaining:
      - '72'
      X-Ratelimit-Reset:
      - '1493040718'
      X-Ratelimit-Reset-In:
      - 60 seconds
      Cache-Control:
      - no-store, must-revalidate, private, max-age=0
      X-Request-Id:
      - f8ae9bd7-8c3d-4bc4-978f-12f0e512e778
      X-Runtime:
      - '0.066392'
      Set-Cookie:
      - __profilin=p%3Dt; path=/
      - __profilin=p%3Dt; path=/
      - __profilin=p%3Dt; path=/
      X-Miniprofiler-Ids:
      - '["lwo7gldc8vpcknkit26h","wzl1b1fwdjqhlnjm4ga","d5dabvoqee6xo1mn67f8","svgz63xoi04rxvfm1id0","3c28kcn8sfjs7qofyekl","vfe6xfara8cd9wulooqd","lk1eagtyt91mfdzagqc9","y1k3mdngfvkqnp0veqie","3hpfa686jddv0e7nv4no","k7xdv6aho24n1km8wyzf"]'
    body:
      encoding: UTF-8
      string: '{"data":[{"id":12,"category_id":2253,"title":"Dan","sort_by":"created_at","sort_order":"asc","max_vids":50,"position":"top","private":true,"dimensions":"448x336","autoplay":true,"continuous_play":true,"embed_code":"<iframe
        id=\"vzpl-12\" name=\"vzpl-12\" title=\"vzaar video player\" class=\"vzaar
        video player\" type=\"text/html\" width=\"448\" height=\"466\" frameborder=\"0\"
        allowFullScreen allowTransparency=\"true\" mozallowfullscreen webkitAllowFullScreen
        src=\"//view.vzaar.localhost/playlists/12\"></iframe>","created_at":"2012-04-04T17:16:56.000Z","updated_at":"2016-02-04T12:08:36.000Z"},{"id":12676,"category_id":2253,"title":"ok","sort_by":"created_at","sort_order":"desc","max_vids":43,"position":"right","private":true,"dimensions":"auto","autoplay":true,"continuous_play":true,"embed_code":"<iframe
        id=\"vzpl-12676\" name=\"vzpl-12676\" title=\"vzaar video player\" class=\"vzaar
        video player\" type=\"text/html\" width=\"927\" height=\"432\" frameborder=\"0\"
        allowFullScreen allowTransparency=\"true\" mozallowfullscreen webkitAllowFullScreen
        src=\"//view.vzaar.localhost/playlists/12676\"></iframe>","created_at":"2017-03-20T10:05:10.000Z","updated_at":"2017-04-21T10:06:06.000Z"}],"meta":{"total_count":18,"links":{"first":"http://app.vzaar.localhost/api/v2/feeds/playlists?page=1&per_page=2","next":"http://app.vzaar.localhost/api/v2/feeds/playlists?page=2&per_page=2","previous":null,"last":"http://app.vzaar.localhost/api/v2/feeds/playlists?page=9&per_page=2"}}}'
    http_version: 
  recorded_at: Mon, 24 Apr 2017 13:30:58 GMT
- request:
    method: get
    uri: http://app.vzaar.localhost/api/v2/feeds/playlists
    body:
      encoding: UTF-8
      string: ''
    headers:
      User-Agent:
      - HTTPClient/1.0 (2.8.3, ruby 2.3.0 (2015-12-25))
      Accept:
      - "*/*"
      Date:
      - Mon, 24 Apr 2017 13:30:58 GMT
      X-Auth-Token:
      - TUGXzNL17ypaougMYpR3
      X-Client-Id:
      - lair-tend72
      Content-Type:
      - application/json
  response:
    status:
      code: 200
      message: OK
    headers:
      Server:
      - nginx/1.8.0
      Date:
      - Mon, 24 Apr 2017 13:30:58 GMT
      Content-Type:
      - application/json
      Content-Length:
      - '1567'
      Connection:
      - keep-alive
      X-Ratelimit-Limit:
      - '200'
      X-Ratelimit-Remaining:
      - '71'
      X-Ratelimit-Reset:
      - '1493040718'
      X-Ratelimit-Reset-In:
      - 60 seconds
      Cache-Control:
      - no-store, must-revalidate, private, max-age=0
      X-Request-Id:
      - 82e3d720-2666-4612-b124-61517470c1b6
      X-Runtime:
      - '0.086142'
      Set-Cookie:
      - __profilin=p%3Dt; path=/
      - __profilin=p%3Dt; path=/
      - __profilin=p%3Dt; path=/
      X-Miniprofiler-Ids:
      - '["xmkhb5qexr29b6niyep0","wzl1b1fwdjqhlnjm4ga","d5dabvoqee6xo1mn67f8","svgz63xoi04rxvfm1id0","3c28kcn8sfjs7qofyekl","vfe6xfara8cd9wulooqd","lk1eagtyt91mfdzagqc9","y1k3mdngfvkqnp0veqie","3hpfa686jddv0e7nv4no","k7xdv6aho24n1km8wyzf"]'
    body:
      encoding: UTF-8
      string: '{"data":[{"id":12677,"category_id":2253,"title":"test","sort_by":"created_at","sort_order":"desc","max_vids":10,"position":"left","private":true,"dimensions":"auto","autoplay":false,"continuous_play":false,"embed_code":"<iframe
        id=\"vzpl-12677\" name=\"vzpl-12677\" title=\"vzaar video player\" class=\"vzaar
        video player\" type=\"text/html\" width=\"927\" height=\"432\" frameborder=\"0\"
        allowFullScreen allowTransparency=\"true\" mozallowfullscreen webkitAllowFullScreen
        src=\"//view.vzaar.localhost/playlists/12677\"></iframe>","created_at":"2017-03-20T10:06:23.000Z","updated_at":"2017-03-20T10:06:23.000Z"},{"id":12678,"category_id":2253,"title":"test","sort_by":"created_at","sort_order":"desc","max_vids":10,"position":"left","private":true,"dimensions":"auto","autoplay":false,"continuous_play":false,"embed_code":"<iframe
        id=\"vzpl-12678\" name=\"vzpl-12678\" title=\"vzaar video player\" class=\"vzaar
        video player\" type=\"text/html\" width=\"927\" height=\"432\" frameborder=\"0\"
        allowFullScreen allowTransparency=\"true\" mozallowfullscreen webkitAllowFullScreen
        src=\"//view.vzaar.localhost/playlists/12678\"></iframe>","created_at":"2017-03-20T10:08:36.000Z","updated_at":"2017-03-20T10:08:36.000Z"}],"meta":{"total_count":18,"links":{"first":"http://app.vzaar.localhost/api/v2/feeds/playlists?page=1&per_page=2","next":"http://app.vzaar.localhost/api/v2/feeds/playlists?page=3&per_page=2","previous":"http://app.vzaar.localhost/api/v2/feeds/playlists?page=1&per_page=2","last":"http://app.vzaar.localhost/api/v2/feeds/playlists?page=9&per_page=2"}}}'
    http_version: 
  recorded_at: Mon, 24 Apr 2017 13:30:58 GMT
- request:
    method: get
    uri: http://app.vzaar.localhost/api/v2/feeds/playlists
    body:
      encoding: UTF-8
      string: ''
    headers:
      User-Agent:
      - HTTPClient/1.0 (2.8.3, ruby 2.3.0 (2015-12-25))
      Accept:
      - "*/*"
      Date:
      - Mon, 24 Apr 2017 13:30:58 GMT
      X-Auth-Token:
      - TUGXzNL17ypaougMYpR3
      X-Client-Id:
      - lair-tend72
      Content-Type:
      - application/json
  response:
    status:
      code: 200
      message: OK
    headers:
      Server:
      - nginx/1.8.0
      Date:
      - Mon, 24 Apr 2017 13:30:58 GMT
      Content-Type:
      - application/json
      Content-Length:
      - '1570'
      Connection:
      - keep-alive
      X-Ratelimit-Limit:
      - '200'
      X-Ratelimit-Remaining:
      - '70'
      X-Ratelimit-Reset:
      - '1493040718'
      X-Ratelimit-Reset-In:
      - 60 seconds
      Cache-Control:
      - no-store, must-revalidate, private, max-age=0
      X-Request-Id:
      - 64391749-f30e-42a3-94aa-0c56c21afafd
      X-Runtime:
      - '0.062551'
      Set-Cookie:
      - __profilin=p%3Dt; path=/
      - __profilin=p%3Dt; path=/
      - __profilin=p%3Dt; path=/
      X-Miniprofiler-Ids:
      - '["9vswbokuloq7gffexugz","wzl1b1fwdjqhlnjm4ga","d5dabvoqee6xo1mn67f8","svgz63xoi04rxvfm1id0","3c28kcn8sfjs7qofyekl","vfe6xfara8cd9wulooqd","lk1eagtyt91mfdzagqc9","y1k3mdngfvkqnp0veqie","3hpfa686jddv0e7nv4no","k7xdv6aho24n1km8wyzf"]'
    body:
      encoding: UTF-8
      string: '{"data":[{"id":12679,"category_id":2253,"title":"test","sort_by":"created_at","sort_order":"desc","max_vids":10,"position":"left","private":true,"dimensions":"auto","autoplay":false,"continuous_play":false,"embed_code":"<iframe
        id=\"vzpl-12679\" name=\"vzpl-12679\" title=\"vzaar video player\" class=\"vzaar
        video player\" type=\"text/html\" width=\"927\" height=\"432\" frameborder=\"0\"
        allowFullScreen allowTransparency=\"true\" mozallowfullscreen webkitAllowFullScreen
        src=\"//view.vzaar.localhost/playlists/12679\"></iframe>","created_at":"2017-03-20T10:11:10.000Z","updated_at":"2017-03-20T10:11:10.000Z"},{"id":12680,"category_id":2253,"title":"test","sort_by":"created_at","sort_order":"desc","max_vids":10,"position":"left","private":true,"dimensions":"768x340","autoplay":false,"continuous_play":false,"embed_code":"<iframe
        id=\"vzpl-12680\" name=\"vzpl-12680\" title=\"vzaar video player\" class=\"vzaar
        video player\" type=\"text/html\" width=\"927\" height=\"340\" frameborder=\"0\"
        allowFullScreen allowTransparency=\"true\" mozallowfullscreen webkitAllowFullScreen
        src=\"//view.vzaar.localhost/playlists/12680\"></iframe>","created_at":"2017-03-20T10:14:49.000Z","updated_at":"2017-03-20T10:14:49.000Z"}],"meta":{"total_count":18,"links":{"first":"http://app.vzaar.localhost/api/v2/feeds/playlists?page=1&per_page=2","next":"http://app.vzaar.localhost/api/v2/feeds/playlists?page=4&per_page=2","previous":"http://app.vzaar.localhost/api/v2/feeds/playlists?page=2&per_page=2","last":"http://app.vzaar.localhost/api/v2/feeds/playlists?page=9&per_page=2"}}}'
    http_version: 
  recorded_at: Mon, 24 Apr 2017 13:30:58 GMT
- request:
    method: get
    uri: http://app.vzaar.localhost/api/v2/feeds/playlists
    body:
      encoding: UTF-8
      string: ''
    headers:
      User-Agent:
      - HTTPClient/1.0 (2.8.3, ruby 2.3.0 (2015-12-25))
      Accept:
      - "*/*"
      Date:
      - Mon, 24 Apr 2017 13:30:58 GMT
      X-Auth-Token:
      - TUGXzNL17ypaougMYpR3
      X-Client-Id:
      - lair-tend72
      Content-Type:
      - application/json
  response:
    status:
      code: 200
      message: OK
    headers:
      Server:
      - nginx/1.8.0
      Date:
      - Mon, 24 Apr 2017 13:30:58 GMT
      Content-Type:
      - application/json
      Content-Length:
      - '1573'
      Connection:
      - keep-alive
      X-Ratelimit-Limit:
      - '200'
      X-Ratelimit-Remaining:
      - '69'
      X-Ratelimit-Reset:
      - '1493040718'
      X-Ratelimit-Reset-In:
      - 60 seconds
      Cache-Control:
      - no-store, must-revalidate, private, max-age=0
      X-Request-Id:
      - 02b28b09-8c9c-4dc8-8556-f9b9e939ffa8
      X-Runtime:
      - '0.064785'
      Set-Cookie:
      - __profilin=p%3Dt; path=/
      - __profilin=p%3Dt; path=/
      - __profilin=p%3Dt; path=/
      X-Miniprofiler-Ids:
      - '["lyo7gr3prm3wwp3axj56","wzl1b1fwdjqhlnjm4ga","d5dabvoqee6xo1mn67f8","svgz63xoi04rxvfm1id0","3c28kcn8sfjs7qofyekl","vfe6xfara8cd9wulooqd","lk1eagtyt91mfdzagqc9","y1k3mdngfvkqnp0veqie","3hpfa686jddv0e7nv4no","k7xdv6aho24n1km8wyzf"]'
    body:
      encoding: UTF-8
      string: '{"data":[{"id":12681,"category_id":2253,"title":"test","sort_by":"created_at","sort_order":"desc","max_vids":47,"position":"left","private":true,"dimensions":"768x340","autoplay":false,"continuous_play":false,"embed_code":"<iframe
        id=\"vzpl-12681\" name=\"vzpl-12681\" title=\"vzaar video player\" class=\"vzaar
        video player\" type=\"text/html\" width=\"927\" height=\"340\" frameborder=\"0\"
        allowFullScreen allowTransparency=\"true\" mozallowfullscreen webkitAllowFullScreen
        src=\"//view.vzaar.localhost/playlists/12681\"></iframe>","created_at":"2017-03-20T11:06:53.000Z","updated_at":"2017-03-20T11:06:53.000Z"},{"id":12682,"category_id":2253,"title":"test","sort_by":"created_at","sort_order":"desc","max_vids":43,"position":"left","private":true,"dimensions":"768x340","autoplay":false,"continuous_play":false,"embed_code":"<iframe
        id=\"vzpl-12682\" name=\"vzpl-12682\" title=\"vzaar video player\" class=\"vzaar
        video player\" type=\"text/html\" width=\"927\" height=\"340\" frameborder=\"0\"
        allowFullScreen allowTransparency=\"true\" mozallowfullscreen webkitAllowFullScreen
        src=\"//view.vzaar.localhost/playlists/12682\"></iframe>","created_at":"2017-03-20T11:16:09.000Z","updated_at":"2017-03-20T11:16:09.000Z"}],"meta":{"total_count":18,"links":{"first":"http://app.vzaar.localhost/api/v2/feeds/playlists?page=1&per_page=2","next":"http://app.vzaar.localhost/api/v2/feeds/playlists?page=5&per_page=2","previous":"http://app.vzaar.localhost/api/v2/feeds/playlists?page=3&per_page=2","last":"http://app.vzaar.localhost/api/v2/feeds/playlists?page=9&per_page=2"}}}'
    http_version: 
  recorded_at: Mon, 24 Apr 2017 13:30:58 GMT
- request:
    method: get
    uri: http://app.vzaar.localhost/api/v2/feeds/playlists
    body:
      encoding: UTF-8
      string: ''
    headers:
      User-Agent:
      - HTTPClient/1.0 (2.8.3, ruby 2.3.0 (2015-12-25))
      Accept:
      - "*/*"
      Date:
      - Mon, 24 Apr 2017 13:30:58 GMT
      X-Auth-Token:
      - TUGXzNL17ypaougMYpR3
      X-Client-Id:
      - lair-tend72
      Content-Type:
      - application/json
  response:
    status:
      code: 200
      message: OK
    headers:
      Server:
      - nginx/1.8.0
      Date:
      - Mon, 24 Apr 2017 13:30:58 GMT
      Content-Type:
      - application/json
      Content-Length:
      - '1574'
      Connection:
      - keep-alive
      X-Ratelimit-Limit:
      - '200'
      X-Ratelimit-Remaining:
      - '68'
      X-Ratelimit-Reset:
      - '1493040718'
      X-Ratelimit-Reset-In:
      - 60 seconds
      Cache-Control:
      - no-store, must-revalidate, private, max-age=0
      X-Request-Id:
      - 12bc40bf-a3ff-47da-8846-76e6715938b4
      X-Runtime:
      - '0.072187'
      Set-Cookie:
      - __profilin=p%3Dt; path=/
      - __profilin=p%3Dt; path=/
      - __profilin=p%3Dt; path=/
      X-Miniprofiler-Ids:
      - '["u7k6zil7z3jms280dsr5","wzl1b1fwdjqhlnjm4ga","d5dabvoqee6xo1mn67f8","svgz63xoi04rxvfm1id0","3c28kcn8sfjs7qofyekl","vfe6xfara8cd9wulooqd","lk1eagtyt91mfdzagqc9","y1k3mdngfvkqnp0veqie","3hpfa686jddv0e7nv4no","k7xdv6aho24n1km8wyzf"]'
    body:
      encoding: UTF-8
      string: '{"data":[{"id":12683,"category_id":2253,"title":"test","sort_by":"created_at","sort_order":"desc","max_vids":43,"position":"left","private":false,"dimensions":"768x340","autoplay":false,"continuous_play":false,"embed_code":"<iframe
        id=\"vzpl-12683\" name=\"vzpl-12683\" title=\"vzaar video player\" class=\"vzaar
        video player\" type=\"text/html\" width=\"927\" height=\"340\" frameborder=\"0\"
        allowFullScreen allowTransparency=\"true\" mozallowfullscreen webkitAllowFullScreen
        src=\"//view.vzaar.localhost/playlists/12683\"></iframe>","created_at":"2017-03-20T11:27:05.000Z","updated_at":"2017-03-20T11:27:05.000Z"},{"id":12684,"category_id":2253,"title":"test","sort_by":"created_at","sort_order":"desc","max_vids":43,"position":"right","private":false,"dimensions":"768x340","autoplay":true,"continuous_play":true,"embed_code":"<iframe
        id=\"vzpl-12684\" name=\"vzpl-12684\" title=\"vzaar video player\" class=\"vzaar
        video player\" type=\"text/html\" width=\"927\" height=\"340\" frameborder=\"0\"
        allowFullScreen allowTransparency=\"true\" mozallowfullscreen webkitAllowFullScreen
        src=\"//view.vzaar.localhost/playlists/12684\"></iframe>","created_at":"2017-03-20T11:28:41.000Z","updated_at":"2017-03-20T11:28:41.000Z"}],"meta":{"total_count":18,"links":{"first":"http://app.vzaar.localhost/api/v2/feeds/playlists?page=1&per_page=2","next":"http://app.vzaar.localhost/api/v2/feeds/playlists?page=6&per_page=2","previous":"http://app.vzaar.localhost/api/v2/feeds/playlists?page=4&per_page=2","last":"http://app.vzaar.localhost/api/v2/feeds/playlists?page=9&per_page=2"}}}'
    http_version: 
  recorded_at: Mon, 24 Apr 2017 13:30:58 GMT
- request:
    method: get
    uri: http://app.vzaar.localhost/api/v2/feeds/playlists
    body:
      encoding: UTF-8
      string: ''
    headers:
      User-Agent:
      - HTTPClient/1.0 (2.8.3, ruby 2.3.0 (2015-12-25))
      Accept:
      - "*/*"
      Date:
      - Mon, 24 Apr 2017 13:30:58 GMT
      X-Auth-Token:
      - TUGXzNL17ypaougMYpR3
      X-Client-Id:
      - lair-tend72
      Content-Type:
      - application/json
  response:
    status:
      code: 200
      message: OK
    headers:
      Server:
      - nginx/1.8.0
      Date:
      - Mon, 24 Apr 2017 13:30:58 GMT
      Content-Type:
      - application/json
      Content-Length:
      - '1573'
      Connection:
      - keep-alive
      X-Ratelimit-Limit:
      - '200'
      X-Ratelimit-Remaining:
      - '67'
      X-Ratelimit-Reset:
      - '1493040718'
      X-Ratelimit-Reset-In:
      - 60 seconds
      Cache-Control:
      - no-store, must-revalidate, private, max-age=0
      X-Request-Id:
      - 08873fd7-d1e3-4f00-93f4-efc56f7c631a
      X-Runtime:
      - '0.060628'
      Set-Cookie:
      - __profilin=p%3Dt; path=/
      - __profilin=p%3Dt; path=/
      - __profilin=p%3Dt; path=/
      X-Miniprofiler-Ids:
      - '["e2eu8seg198f3jvn9vs9","wzl1b1fwdjqhlnjm4ga","d5dabvoqee6xo1mn67f8","svgz63xoi04rxvfm1id0","3c28kcn8sfjs7qofyekl","vfe6xfara8cd9wulooqd","lk1eagtyt91mfdzagqc9","y1k3mdngfvkqnp0veqie","3hpfa686jddv0e7nv4no","k7xdv6aho24n1km8wyzf"]'
    body:
      encoding: UTF-8
      string: '{"data":[{"id":12685,"category_id":2253,"title":"test","sort_by":"created_at","sort_order":"desc","max_vids":43,"position":"right","private":false,"dimensions":"768x340","autoplay":true,"continuous_play":true,"embed_code":"<iframe
        id=\"vzpl-12685\" name=\"vzpl-12685\" title=\"vzaar video player\" class=\"vzaar
        video player\" type=\"text/html\" width=\"927\" height=\"340\" frameborder=\"0\"
        allowFullScreen allowTransparency=\"true\" mozallowfullscreen webkitAllowFullScreen
        src=\"//view.vzaar.localhost/playlists/12685\"></iframe>","created_at":"2017-03-20T11:29:50.000Z","updated_at":"2017-03-20T11:29:50.000Z"},{"id":12686,"category_id":2253,"title":"test","sort_by":"created_at","sort_order":"desc","max_vids":43,"position":"right","private":false,"dimensions":"768x340","autoplay":true,"continuous_play":true,"embed_code":"<iframe
        id=\"vzpl-12686\" name=\"vzpl-12686\" title=\"vzaar video player\" class=\"vzaar
        video player\" type=\"text/html\" width=\"927\" height=\"340\" frameborder=\"0\"
        allowFullScreen allowTransparency=\"true\" mozallowfullscreen webkitAllowFullScreen
        src=\"//view.vzaar.localhost/playlists/12686\"></iframe>","created_at":"2017-03-20T11:30:36.000Z","updated_at":"2017-03-20T11:30:36.000Z"}],"meta":{"total_count":18,"links":{"first":"http://app.vzaar.localhost/api/v2/feeds/playlists?page=1&per_page=2","next":"http://app.vzaar.localhost/api/v2/feeds/playlists?page=7&per_page=2","previous":"http://app.vzaar.localhost/api/v2/feeds/playlists?page=5&per_page=2","last":"http://app.vzaar.localhost/api/v2/feeds/playlists?page=9&per_page=2"}}}'
    http_version: 
  recorded_at: Mon, 24 Apr 2017 13:30:58 GMT
- request:
    method: get
    uri: http://app.vzaar.localhost/api/v2/feeds/playlists
    body:
      encoding: UTF-8
      string: ''
    headers:
      User-Agent:
      - HTTPClient/1.0 (2.8.3, ruby 2.3.0 (2015-12-25))
      Accept:
      - "*/*"
      Date:
      - Mon, 24 Apr 2017 13:30:58 GMT
      X-Auth-Token:
      - TUGXzNL17ypaougMYpR3
      X-Client-Id:
      - lair-tend72
      Content-Type:
      - application/json
  response:
    status:
      code: 200
      message: OK
    headers:
      Server:
      - nginx/1.8.0
      Date:
      - Mon, 24 Apr 2017 13:30:58 GMT
      Content-Type:
      - application/json
      Content-Length:
      - '1573'
      Connection:
      - keep-alive
      X-Ratelimit-Limit:
      - '200'
      X-Ratelimit-Remaining:
      - '66'
      X-Ratelimit-Reset:
      - '1493040718'
      X-Ratelimit-Reset-In:
      - 60 seconds
      Cache-Control:
      - no-store, must-revalidate, private, max-age=0
      X-Request-Id:
      - 43b5251b-15cf-46f0-b24b-bedcb619e645
      X-Runtime:
      - '0.059840'
      Set-Cookie:
      - __profilin=p%3Dt; path=/
      - __profilin=p%3Dt; path=/
      - __profilin=p%3Dt; path=/
      X-Miniprofiler-Ids:
      - '["wi127rnaouaal7rrqzzy","wzl1b1fwdjqhlnjm4ga","d5dabvoqee6xo1mn67f8","svgz63xoi04rxvfm1id0","3c28kcn8sfjs7qofyekl","vfe6xfara8cd9wulooqd","lk1eagtyt91mfdzagqc9","y1k3mdngfvkqnp0veqie","3hpfa686jddv0e7nv4no","k7xdv6aho24n1km8wyzf"]'
    body:
      encoding: UTF-8
      string: '{"data":[{"id":12687,"category_id":2253,"title":"test","sort_by":"created_at","sort_order":"desc","max_vids":43,"position":"right","private":false,"dimensions":"768x340","autoplay":true,"continuous_play":true,"embed_code":"<iframe
        id=\"vzpl-12687\" name=\"vzpl-12687\" title=\"vzaar video player\" class=\"vzaar
        video player\" type=\"text/html\" width=\"927\" height=\"340\" frameborder=\"0\"
        allowFullScreen allowTransparency=\"true\" mozallowfullscreen webkitAllowFullScreen
        src=\"//view.vzaar.localhost/playlists/12687\"></iframe>","created_at":"2017-03-20T11:54:19.000Z","updated_at":"2017-03-20T11:54:19.000Z"},{"id":12688,"category_id":2253,"title":"test","sort_by":"created_at","sort_order":"desc","max_vids":43,"position":"right","private":false,"dimensions":"768x340","autoplay":true,"continuous_play":true,"embed_code":"<iframe
        id=\"vzpl-12688\" name=\"vzpl-12688\" title=\"vzaar video player\" class=\"vzaar
        video player\" type=\"text/html\" width=\"927\" height=\"340\" frameborder=\"0\"
        allowFullScreen allowTransparency=\"true\" mozallowfullscreen webkitAllowFullScreen
        src=\"//view.vzaar.localhost/playlists/12688\"></iframe>","created_at":"2017-04-10T14:51:50.000Z","updated_at":"2017-04-10T14:51:50.000Z"}],"meta":{"total_count":18,"links":{"first":"http://app.vzaar.localhost/api/v2/feeds/playlists?page=1&per_page=2","next":"http://app.vzaar.localhost/api/v2/feeds/playlists?page=8&per_page=2","previous":"http://app.vzaar.localhost/api/v2/feeds/playlists?page=6&per_page=2","last":"http://app.vzaar.localhost/api/v2/feeds/playlists?page=9&per_page=2"}}}'
    http_version: 
  recorded_at: Mon, 24 Apr 2017 13:30:58 GMT
- request:
    method: get
    uri: http://app.vzaar.localhost/api/v2/feeds/playlists
    body:
      encoding: UTF-8
      string: ''
    headers:
      User-Agent:
      - HTTPClient/1.0 (2.8.3, ruby 2.3.0 (2015-12-25))
      Accept:
      - "*/*"
      Date:
      - Mon, 24 Apr 2017 13:30:58 GMT
      X-Auth-Token:
      - TUGXzNL17ypaougMYpR3
      X-Client-Id:
      - lair-tend72
      Content-Type:
      - application/json
  response:
    status:
      code: 200
      message: OK
    headers:
      Server:
      - nginx/1.8.0
      Date:
      - Mon, 24 Apr 2017 13:30:58 GMT
      Content-Type:
      - application/json
      Content-Length:
      - '1573'
      Connection:
      - keep-alive
      X-Ratelimit-Limit:
      - '200'
      X-Ratelimit-Remaining:
      - '65'
      X-Ratelimit-Reset:
      - '1493040718'
      X-Ratelimit-Reset-In:
      - 60 seconds
      Cache-Control:
      - no-store, must-revalidate, private, max-age=0
      X-Request-Id:
      - cee114e4-0828-4151-a3d2-5b4a5dd35a5b
      X-Runtime:
      - '0.053393'
      Set-Cookie:
      - __profilin=p%3Dt; path=/
      - __profilin=p%3Dt; path=/
      - __profilin=p%3Dt; path=/
      X-Miniprofiler-Ids:
      - '["hfswsl0em0fpa3vqdf8n","wzl1b1fwdjqhlnjm4ga","d5dabvoqee6xo1mn67f8","svgz63xoi04rxvfm1id0","3c28kcn8sfjs7qofyekl","vfe6xfara8cd9wulooqd","lk1eagtyt91mfdzagqc9","y1k3mdngfvkqnp0veqie","3hpfa686jddv0e7nv4no","k7xdv6aho24n1km8wyzf"]'
    body:
      encoding: UTF-8
      string: '{"data":[{"id":12689,"category_id":2253,"title":"test","sort_by":"created_at","sort_order":"desc","max_vids":43,"position":"right","private":false,"dimensions":"768x340","autoplay":true,"continuous_play":true,"embed_code":"<iframe
        id=\"vzpl-12689\" name=\"vzpl-12689\" title=\"vzaar video player\" class=\"vzaar
        video player\" type=\"text/html\" width=\"927\" height=\"340\" frameborder=\"0\"
        allowFullScreen allowTransparency=\"true\" mozallowfullscreen webkitAllowFullScreen
        src=\"//view.vzaar.localhost/playlists/12689\"></iframe>","created_at":"2017-04-21T10:05:17.000Z","updated_at":"2017-04-21T10:05:17.000Z"},{"id":12691,"category_id":2253,"title":"test","sort_by":"created_at","sort_order":"desc","max_vids":43,"position":"right","private":false,"dimensions":"768x340","autoplay":true,"continuous_play":true,"embed_code":"<iframe
        id=\"vzpl-12691\" name=\"vzpl-12691\" title=\"vzaar video player\" class=\"vzaar
        video player\" type=\"text/html\" width=\"927\" height=\"340\" frameborder=\"0\"
        allowFullScreen allowTransparency=\"true\" mozallowfullscreen webkitAllowFullScreen
        src=\"//view.vzaar.localhost/playlists/12691\"></iframe>","created_at":"2017-04-21T13:55:30.000Z","updated_at":"2017-04-21T13:55:30.000Z"}],"meta":{"total_count":18,"links":{"first":"http://app.vzaar.localhost/api/v2/feeds/playlists?page=1&per_page=2","next":"http://app.vzaar.localhost/api/v2/feeds/playlists?page=9&per_page=2","previous":"http://app.vzaar.localhost/api/v2/feeds/playlists?page=7&per_page=2","last":"http://app.vzaar.localhost/api/v2/feeds/playlists?page=9&per_page=2"}}}'
    http_version: 
  recorded_at: Mon, 24 Apr 2017 13:30:58 GMT
- request:
    method: get
    uri: http://app.vzaar.localhost/api/v2/feeds/playlists
    body:
      encoding: UTF-8
      string: ''
    headers:
      User-Agent:
      - HTTPClient/1.0 (2.8.3, ruby 2.3.0 (2015-12-25))
      Accept:
      - "*/*"
      Date:
      - Mon, 24 Apr 2017 13:30:58 GMT
      X-Auth-Token:
      - TUGXzNL17ypaougMYpR3
      X-Client-Id:
      - lair-tend72
      Content-Type:
      - application/json
  response:
    status:
      code: 200
      message: OK
    headers:
      Server:
      - nginx/1.8.0
      Date:
      - Mon, 24 Apr 2017 13:30:59 GMT
      Content-Type:
      - application/json
      Content-Length:
      - '1519'
      Connection:
      - keep-alive
      X-Ratelimit-Limit:
      - '200'
      X-Ratelimit-Remaining:
      - '64'
      X-Ratelimit-Reset:
      - '1493040718'
      X-Ratelimit-Reset-In:
      - 60 seconds
      Cache-Control:
      - no-store, must-revalidate, private, max-age=0
      X-Request-Id:
      - a7194410-87c6-48f2-bff4-6f59e26ab980
      X-Runtime:
      - '0.056651'
      Set-Cookie:
      - __profilin=p%3Dt; path=/
      - __profilin=p%3Dt; path=/
      - __profilin=p%3Dt; path=/
      X-Miniprofiler-Ids:
      - '["emm7uxw45x7xlc946yew","wzl1b1fwdjqhlnjm4ga","d5dabvoqee6xo1mn67f8","svgz63xoi04rxvfm1id0","3c28kcn8sfjs7qofyekl","vfe6xfara8cd9wulooqd","lk1eagtyt91mfdzagqc9","y1k3mdngfvkqnp0veqie","3hpfa686jddv0e7nv4no","k7xdv6aho24n1km8wyzf"]'
    body:
      encoding: UTF-8
      string: '{"data":[{"id":12692,"category_id":2253,"title":"test","sort_by":"created_at","sort_order":"desc","max_vids":43,"position":"right","private":false,"dimensions":"768x340","autoplay":true,"continuous_play":true,"embed_code":"<iframe
        id=\"vzpl-12692\" name=\"vzpl-12692\" title=\"vzaar video player\" class=\"vzaar
        video player\" type=\"text/html\" width=\"927\" height=\"340\" frameborder=\"0\"
        allowFullScreen allowTransparency=\"true\" mozallowfullscreen webkitAllowFullScreen
        src=\"//view.vzaar.localhost/playlists/12692\"></iframe>","created_at":"2017-04-21T14:16:50.000Z","updated_at":"2017-04-21T14:16:50.000Z"},{"id":1065,"category_id":2254,"title":"200
        video limit","sort_by":"created_at","sort_order":"desc","max_vids":138,"position":"bottom","private":false,"dimensions":"320x240","autoplay":false,"continuous_play":false,"embed_code":"<iframe
        id=\"vzpl-1065\" name=\"vzpl-1065\" title=\"vzaar video player\" class=\"vzaar
        video player\" type=\"text/html\" width=\"320\" height=\"370\" frameborder=\"0\"
        allowFullScreen allowTransparency=\"true\" mozallowfullscreen webkitAllowFullScreen
        src=\"//view.vzaar.localhost/playlists/1065\"></iframe>","created_at":"2012-08-28T10:04:53.000Z","updated_at":"2014-04-16T09:11:34.000Z"}],"meta":{"total_count":18,"links":{"first":"http://app.vzaar.localhost/api/v2/feeds/playlists?page=1&per_page=2","next":null,"previous":"http://app.vzaar.localhost/api/v2/feeds/playlists?page=8&per_page=2","last":"http://app.vzaar.localhost/api/v2/feeds/playlists?page=9&per_page=2"}}}'
    http_version: 
  recorded_at: Mon, 24 Apr 2017 13:30:59 GMT
recorded_with: VCR 3.0.3
