---
http_interactions:
- request:
    method: get
    uri: https://app.vzaar.localhost/api/v2/feeds/playlists?page=4&per_page=3
    body:
      encoding: UTF-8
      string: ''
    headers:
      User-Agent:
      - HTTPClient/1.0 (2.8.3, ruby 2.3.0 (2015-12-25))
      Accept:
      - "*/*"
      Date:
      - Mon, 24 Apr 2017 13:30:59 GMT
      X-Auth-Token:
      - TUGXzNL17ypaougMYpR3
      X-Client-Id:
      - lair-tend72
      Content-Type:
      - application/json
  response:
    status:
      code: 200
      message: OK
    headers:
      Server:
      - nginx/1.8.0
      Date:
      - Mon, 24 Apr 2017 13:30:59 GMT
      Content-Type:
      - application/json
      Content-Length:
      - '2180'
      Connection:
      - keep-alive
      X-Ratelimit-Limit:
      - '200'
      X-Ratelimit-Remaining:
      - '58'
      X-Ratelimit-Reset:
      - '1493040719'
      X-Ratelimit-Reset-In:
      - 60 seconds
      Cache-Control:
      - no-store, must-revalidate, private, max-age=0
      X-Request-Id:
      - 8133fc80-803d-476d-8636-859b4499c026
      X-Runtime:
      - '0.077695'
      Set-Cookie:
      - __profilin=p%3Dt; path=/
      - __profilin=p%3Dt; path=/
      - __profilin=p%3Dt; path=/
      X-Miniprofiler-Ids:
      - '["htmcbzqz58y5bjsg8uo7","wzl1b1fwdjqhlnjm4ga","d5dabvoqee6xo1mn67f8","svgz63xoi04rxvfm1id0","3c28kcn8sfjs7qofyekl","vfe6xfara8cd9wulooqd","lk1eagtyt91mfdzagqc9","y1k3mdngfvkqnp0veqie","3hpfa686jddv0e7nv4no","k7xdv6aho24n1km8wyzf"]'
    body:
      encoding: UTF-8
      string: '{"data":[{"id":12684,"category_id":2253,"title":"test","sort_by":"created_at","sort_order":"desc","max_vids":43,"position":"right","private":false,"dimensions":"768x340","autoplay":true,"continuous_play":true,"embed_code":"<iframe
        id=\"vzpl-12684\" name=\"vzpl-12684\" title=\"vzaar video player\" class=\"vzaar
        video player\" type=\"text/html\" width=\"927\" height=\"340\" frameborder=\"0\"
        allowFullScreen allowTransparency=\"true\" mozallowfullscreen webkitAllowFullScreen
        src=\"//view.vzaar.localhost/playlists/12684\"></iframe>","created_at":"2017-03-20T11:28:41.000Z","updated_at":"2017-03-20T11:28:41.000Z"},{"id":12685,"category_id":2253,"title":"test","sort_by":"created_at","sort_order":"desc","max_vids":43,"position":"right","private":false,"dimensions":"768x340","autoplay":true,"continuous_play":true,"embed_code":"<iframe
        id=\"vzpl-12685\" name=\"vzpl-12685\" title=\"vzaar video player\" class=\"vzaar
        video player\" type=\"text/html\" width=\"927\" height=\"340\" frameborder=\"0\"
        allowFullScreen allowTransparency=\"true\" mozallowfullscreen webkitAllowFullScreen
        src=\"//view.vzaar.localhost/playlists/12685\"></iframe>","created_at":"2017-03-20T11:29:50.000Z","updated_at":"2017-03-20T11:29:50.000Z"},{"id":12686,"category_id":2253,"title":"test","sort_by":"created_at","sort_order":"desc","max_vids":43,"position":"right","private":false,"dimensions":"768x340","autoplay":true,"continuous_play":true,"embed_code":"<iframe
        id=\"vzpl-12686\" name=\"vzpl-12686\" title=\"vzaar video player\" class=\"vzaar
        video player\" type=\"text/html\" width=\"927\" height=\"340\" frameborder=\"0\"
        allowFullScreen allowTransparency=\"true\" mozallowfullscreen webkitAllowFullScreen
        src=\"//view.vzaar.localhost/playlists/12686\"></iframe>","created_at":"2017-03-20T11:30:36.000Z","updated_at":"2017-03-20T11:30:36.000Z"}],"meta":{"total_count":18,"links":{"first":"http://app.vzaar.localhost/api/v2/feeds/playlists?page=1&per_page=3","next":"http://app.vzaar.localhost/api/v2/feeds/playlists?page=5&per_page=3","previous":"http://app.vzaar.localhost/api/v2/feeds/playlists?page=3&per_page=3","last":"http://app.vzaar.localhost/api/v2/feeds/playlists?page=6&per_page=3"}}}'
    http_version: 
  recorded_at: Mon, 24 Apr 2017 13:30:59 GMT
- request:
    method: get
    uri: http://app.vzaar.localhost/api/v2/feeds/playlists
    body:
      encoding: UTF-8
      string: ''
    headers:
      User-Agent:
      - HTTPClient/1.0 (2.8.3, ruby 2.3.0 (2015-12-25))
      Accept:
      - "*/*"
      Date:
      - Mon, 24 Apr 2017 13:30:59 GMT
      X-Auth-Token:
      - TUGXzNL17ypaougMYpR3
      X-Client-Id:
      - lair-tend72
      Content-Type:
      - application/json
  response:
    status:
      code: 200
      message: OK
    headers:
      Server:
      - nginx/1.8.0
      Date:
      - Mon, 24 Apr 2017 13:30:59 GMT
      Content-Type:
      - application/json
      Content-Length:
      - '2181'
      Connection:
      - keep-alive
      X-Ratelimit-Limit:
      - '200'
      X-Ratelimit-Remaining:
      - '57'
      X-Ratelimit-Reset:
      - '1493040719'
      X-Ratelimit-Reset-In:
      - 60 seconds
      Cache-Control:
      - no-store, must-revalidate, private, max-age=0
      X-Request-Id:
      - 6fdd6671-5f25-4fcb-b002-04f0af318d7f
      X-Runtime:
      - '0.081242'
      Set-Cookie:
      - __profilin=p%3Dt; path=/
      - __profilin=p%3Dt; path=/
      - __profilin=p%3Dt; path=/
      X-Miniprofiler-Ids:
      - '["fd3hznaau57ri26lfmbb","wzl1b1fwdjqhlnjm4ga","d5dabvoqee6xo1mn67f8","svgz63xoi04rxvfm1id0","3c28kcn8sfjs7qofyekl","vfe6xfara8cd9wulooqd","lk1eagtyt91mfdzagqc9","y1k3mdngfvkqnp0veqie","3hpfa686jddv0e7nv4no","k7xdv6aho24n1km8wyzf"]'
    body:
      encoding: UTF-8
      string: '{"data":[{"id":12681,"category_id":2253,"title":"test","sort_by":"created_at","sort_order":"desc","max_vids":47,"position":"left","private":true,"dimensions":"768x340","autoplay":false,"continuous_play":false,"embed_code":"<iframe
        id=\"vzpl-12681\" name=\"vzpl-12681\" title=\"vzaar video player\" class=\"vzaar
        video player\" type=\"text/html\" width=\"927\" height=\"340\" frameborder=\"0\"
        allowFullScreen allowTransparency=\"true\" mozallowfullscreen webkitAllowFullScreen
        src=\"//view.vzaar.localhost/playlists/12681\"></iframe>","created_at":"2017-03-20T11:06:53.000Z","updated_at":"2017-03-20T11:06:53.000Z"},{"id":12682,"category_id":2253,"title":"test","sort_by":"created_at","sort_order":"desc","max_vids":43,"position":"left","private":true,"dimensions":"768x340","autoplay":false,"continuous_play":false,"embed_code":"<iframe
        id=\"vzpl-12682\" name=\"vzpl-12682\" title=\"vzaar video player\" class=\"vzaar
        video player\" type=\"text/html\" width=\"927\" height=\"340\" frameborder=\"0\"
        allowFullScreen allowTransparency=\"true\" mozallowfullscreen webkitAllowFullScreen
        src=\"//view.vzaar.localhost/playlists/12682\"></iframe>","created_at":"2017-03-20T11:16:09.000Z","updated_at":"2017-03-20T11:16:09.000Z"},{"id":12683,"category_id":2253,"title":"test","sort_by":"created_at","sort_order":"desc","max_vids":43,"position":"left","private":false,"dimensions":"768x340","autoplay":false,"continuous_play":false,"embed_code":"<iframe
        id=\"vzpl-12683\" name=\"vzpl-12683\" title=\"vzaar video player\" class=\"vzaar
        video player\" type=\"text/html\" width=\"927\" height=\"340\" frameborder=\"0\"
        allowFullScreen allowTransparency=\"true\" mozallowfullscreen webkitAllowFullScreen
        src=\"//view.vzaar.localhost/playlists/12683\"></iframe>","created_at":"2017-03-20T11:27:05.000Z","updated_at":"2017-03-20T11:27:05.000Z"}],"meta":{"total_count":18,"links":{"first":"http://app.vzaar.localhost/api/v2/feeds/playlists?page=1&per_page=3","next":"http://app.vzaar.localhost/api/v2/feeds/playlists?page=4&per_page=3","previous":"http://app.vzaar.localhost/api/v2/feeds/playlists?page=2&per_page=3","last":"http://app.vzaar.localhost/api/v2/feeds/playlists?page=6&per_page=3"}}}'
    http_version: 
  recorded_at: Mon, 24 Apr 2017 13:30:59 GMT
recorded_with: VCR 3.0.3
