---
http_interactions:
- request:
    method: get
    uri: https://app.vzaar.localhost/api/v2/feeds/playlists?per_page=3
    body:
      encoding: UTF-8
      string: ''
    headers:
      User-Agent:
      - HTTPClient/1.0 (2.8.3, ruby 2.3.0 (2015-12-25))
      Accept:
      - "*/*"
      Date:
      - Mon, 24 Apr 2017 13:30:59 GMT
      X-Auth-Token:
      - TUGXzNL17ypaougMYpR3
      X-Client-Id:
      - lair-tend72
      Content-Type:
      - application/json
  response:
    status:
      code: 200
      message: OK
    headers:
      Server:
      - nginx/1.8.0
      Date:
      - Mon, 24 Apr 2017 13:30:59 GMT
      Content-Type:
      - application/json
      Content-Length:
      - '2089'
      Connection:
      - keep-alive
      X-Ratelimit-Limit:
      - '200'
      X-Ratelimit-Remaining:
      - '60'
      X-Ratelimit-Reset:
      - '1493040719'
      X-Ratelimit-Reset-In:
      - 60 seconds
      Cache-Control:
      - no-store, must-revalidate, private, max-age=0
      X-Request-Id:
      - 4b64a969-5b5d-4de5-9ea3-2325c2ad25f9
      X-Runtime:
      - '0.068426'
      Set-Cookie:
      - __profilin=p%3Dt; path=/
      - __profilin=p%3Dt; path=/
      - __profilin=p%3Dt; path=/
      X-Miniprofiler-Ids:
      - '["53hoer3lwfzvck9bo92e","wzl1b1fwdjqhlnjm4ga","d5dabvoqee6xo1mn67f8","svgz63xoi04rxvfm1id0","3c28kcn8sfjs7qofyekl","vfe6xfara8cd9wulooqd","lk1eagtyt91mfdzagqc9","y1k3mdngfvkqnp0veqie","3hpfa686jddv0e7nv4no","k7xdv6aho24n1km8wyzf"]'
    body:
      encoding: UTF-8
      string: '{"data":[{"id":12,"category_id":2253,"title":"Dan","sort_by":"created_at","sort_order":"asc","max_vids":50,"position":"top","private":true,"dimensions":"448x336","autoplay":true,"continuous_play":true,"embed_code":"<iframe
        id=\"vzpl-12\" name=\"vzpl-12\" title=\"vzaar video player\" class=\"vzaar
        video player\" type=\"text/html\" width=\"448\" height=\"466\" frameborder=\"0\"
        allowFullScreen allowTransparency=\"true\" mozallowfullscreen webkitAllowFullScreen
        src=\"//view.vzaar.localhost/playlists/12\"></iframe>","created_at":"2012-04-04T17:16:56.000Z","updated_at":"2016-02-04T12:08:36.000Z"},{"id":12676,"category_id":2253,"title":"ok","sort_by":"created_at","sort_order":"desc","max_vids":43,"position":"right","private":true,"dimensions":"auto","autoplay":true,"continuous_play":true,"embed_code":"<iframe
        id=\"vzpl-12676\" name=\"vzpl-12676\" title=\"vzaar video player\" class=\"vzaar
        video player\" type=\"text/html\" width=\"927\" height=\"432\" frameborder=\"0\"
        allowFullScreen allowTransparency=\"true\" mozallowfullscreen webkitAllowFullScreen
        src=\"//view.vzaar.localhost/playlists/12676\"></iframe>","created_at":"2017-03-20T10:05:10.000Z","updated_at":"2017-04-21T10:06:06.000Z"},{"id":12677,"category_id":2253,"title":"test","sort_by":"created_at","sort_order":"desc","max_vids":10,"position":"left","private":true,"dimensions":"auto","autoplay":false,"continuous_play":false,"embed_code":"<iframe
        id=\"vzpl-12677\" name=\"vzpl-12677\" title=\"vzaar video player\" class=\"vzaar
        video player\" type=\"text/html\" width=\"927\" height=\"432\" frameborder=\"0\"
        allowFullScreen allowTransparency=\"true\" mozallowfullscreen webkitAllowFullScreen
        src=\"//view.vzaar.localhost/playlists/12677\"></iframe>","created_at":"2017-03-20T10:06:23.000Z","updated_at":"2017-03-20T10:06:23.000Z"}],"meta":{"total_count":18,"links":{"first":"http://app.vzaar.localhost/api/v2/feeds/playlists?page=1&per_page=3","next":"http://app.vzaar.localhost/api/v2/feeds/playlists?page=2&per_page=3","previous":null,"last":"http://app.vzaar.localhost/api/v2/feeds/playlists?page=6&per_page=3"}}}'
    http_version: 
  recorded_at: Mon, 24 Apr 2017 13:30:59 GMT
- request:
    method: get
    uri: http://app.vzaar.localhost/api/v2/feeds/playlists
    body:
      encoding: UTF-8
      string: ''
    headers:
      User-Agent:
      - HTTPClient/1.0 (2.8.3, ruby 2.3.0 (2015-12-25))
      Accept:
      - "*/*"
      Date:
      - Mon, 24 Apr 2017 13:30:59 GMT
      X-Auth-Token:
      - TUGXzNL17ypaougMYpR3
      X-Client-Id:
      - lair-tend72
      Content-Type:
      - application/json
  response:
    status:
      code: 200
      message: OK
    headers:
      Server:
      - nginx/1.8.0
      Date:
      - Mon, 24 Apr 2017 13:30:59 GMT
      Content-Type:
      - application/json
      Content-Length:
      - '2126'
      Connection:
      - keep-alive
      X-Ratelimit-Limit:
      - '200'
      X-Ratelimit-Remaining:
      - '59'
      X-Ratelimit-Reset:
      - '1493040719'
      X-Ratelimit-Reset-In:
      - 60 seconds
      Cache-Control:
      - no-store, must-revalidate, private, max-age=0
      X-Request-Id:
      - 7b95c036-3aee-41dd-ad9e-441bf7088129
      X-Runtime:
      - '0.064406'
      Set-Cookie:
      - __profilin=p%3Dt; path=/
      - __profilin=p%3Dt; path=/
      - __profilin=p%3Dt; path=/
      X-Miniprofiler-Ids:
      - '["9ryuqevbl4asn0hpids8","wzl1b1fwdjqhlnjm4ga","d5dabvoqee6xo1mn67f8","svgz63xoi04rxvfm1id0","3c28kcn8sfjs7qofyekl","vfe6xfara8cd9wulooqd","lk1eagtyt91mfdzagqc9","y1k3mdngfvkqnp0veqie","3hpfa686jddv0e7nv4no","k7xdv6aho24n1km8wyzf"]'
    body:
      encoding: UTF-8
      string: '{"data":[{"id":12691,"category_id":2253,"title":"test","sort_by":"created_at","sort_order":"desc","max_vids":43,"position":"right","private":false,"dimensions":"768x340","autoplay":true,"continuous_play":true,"embed_code":"<iframe
        id=\"vzpl-12691\" name=\"vzpl-12691\" title=\"vzaar video player\" class=\"vzaar
        video player\" type=\"text/html\" width=\"927\" height=\"340\" frameborder=\"0\"
        allowFullScreen allowTransparency=\"true\" mozallowfullscreen webkitAllowFullScreen
        src=\"//view.vzaar.localhost/playlists/12691\"></iframe>","created_at":"2017-04-21T13:55:30.000Z","updated_at":"2017-04-21T13:55:30.000Z"},{"id":12692,"category_id":2253,"title":"test","sort_by":"created_at","sort_order":"desc","max_vids":43,"position":"right","private":false,"dimensions":"768x340","autoplay":true,"continuous_play":true,"embed_code":"<iframe
        id=\"vzpl-12692\" name=\"vzpl-12692\" title=\"vzaar video player\" class=\"vzaar
        video player\" type=\"text/html\" width=\"927\" height=\"340\" frameborder=\"0\"
        allowFullScreen allowTransparency=\"true\" mozallowfullscreen webkitAllowFullScreen
        src=\"//view.vzaar.localhost/playlists/12692\"></iframe>","created_at":"2017-04-21T14:16:50.000Z","updated_at":"2017-04-21T14:16:50.000Z"},{"id":1065,"category_id":2254,"title":"200
        video limit","sort_by":"created_at","sort_order":"desc","max_vids":138,"position":"bottom","private":false,"dimensions":"320x240","autoplay":false,"continuous_play":false,"embed_code":"<iframe
        id=\"vzpl-1065\" name=\"vzpl-1065\" title=\"vzaar video player\" class=\"vzaar
        video player\" type=\"text/html\" width=\"320\" height=\"370\" frameborder=\"0\"
        allowFullScreen allowTransparency=\"true\" mozallowfullscreen webkitAllowFullScreen
        src=\"//view.vzaar.localhost/playlists/1065\"></iframe>","created_at":"2012-08-28T10:04:53.000Z","updated_at":"2014-04-16T09:11:34.000Z"}],"meta":{"total_count":18,"links":{"first":"http://app.vzaar.localhost/api/v2/feeds/playlists?page=1&per_page=3","next":null,"previous":"http://app.vzaar.localhost/api/v2/feeds/playlists?page=5&per_page=3","last":"http://app.vzaar.localhost/api/v2/feeds/playlists?page=6&per_page=3"}}}'
    http_version: 
  recorded_at: Mon, 24 Apr 2017 13:30:59 GMT
recorded_with: VCR 3.0.3
