---
http_interactions:
- request:
    method: get
    uri: https://app.vzaar.com/api/v2/videos?per_page=3
    body:
      encoding: UTF-8
      string: ''
    headers:
      User-Agent:
      - HTTPClient/1.0 (2.8.3, ruby 2.5.8 (2020-03-31))
      Accept:
      - "*/*"
      Date:
      - Wed, 05 May 2021 14:55:50 GMT
      X-Auth-Token:
      - xdyzFwz8DV5pq1MDGE7e
      X-Client-Id:
      - capo-sixth-gale
      Content-Type:
      - application/json
  response:
    status:
      code: 200
      message: OK
    headers:
      Cache-Control:
      - max-age=0, private, must-revalidate
      Content-Type:
      - application/json
      Date:
      - Wed, 05 May 2021 14:55:50 GMT
      Etag:
      - W/"27b46be48d332f302fbfea2f2da86579"
      Server:
      - nginx
      X-Ratelimit-Limit:
      - '200'
      X-Ratelimit-Remaining:
      - '189'
      X-Ratelimit-Reset:
      - '1620226560'
      X-Ratelimit-Reset-In:
      - 10 seconds
      X-Request-Id:
      - df452110-8545-4798-b46b-88fc216a78dd
      X-Runtime:
      - '0.147452'
      Content-Length:
      - '5343'
      Connection:
      - keep-alive
    body:
      encoding: UTF-8
      string: '{"data":[{"id":22422431,"title":"The Old Bakery","description":"","state":"ready","private":false,"user_id":93388,"user_login":"lawrencesears","account_id":93367,"account_name":"lawrencesears","duration":326.4,"created_at":"2020-12-24T20:49:18.000Z","updated_at":"2021-05-05T12:03:01.000Z","url":"https://vzaar.com/videos/22422431","seo_url":null,"asset_url":"https://view.vzaar.com/22422431/video","poster_url":"https://view.vzaar.com/22422431/image","thumbnail_url":"https://view.vzaar.com/22422431/thumb","embed_code":"<div
        class=\"vz-container\" style=\"position:relative;padding-bottom:56.25%;overflow:hidden;height:0;max-width:100%;\"><iframe
        id=\"vzvd-22422431\" name=\"vzvd-22422431\" title=\"video player\" type=\"text/html\"
        width=\"100%\" height=\"100%\" frameborder=\"0\" allowfullscreen allowTransparency=\"true\"
        src=\"https://view.vzaar.com/22422431/player\" allow=\"autoplay\" class=\"video-player
        video-player-responsive\" style=\"position:absolute;top:0;left:0;\"></iframe></div>","categories":[],"adverts":[{"advert_id":64,"name":"IAB
        1","tag":"https://pubads.g.doubleclick.net/gampad/ads?sz=640x480&iu=/124319096/external/single_ad_samples&ciu_szs=300x250&impl=s&gdfp_req=1&env=vp&output=vast&unviewed_position_start=1&cust_params=deployment%3Ddevsite%26sample_ct%3Dlinear&correlator=","position":"pre","placement_scope":"user","created_at":"2020-12-17T10:45:45.000Z","updated_at":"2020-12-17T10:45:45.000Z"}],"renditions":[{"id":6125073,"code":"magic","width":3840,"height":2160,"bitrate":6999,"framerate":"60.0","status":"finished","size_in_bytes":291163901,"url":"https://view.vzaar.com/22422431/download/magic"}]},{"id":15380130,"title":null,"description":null,"state":"ready","private":false,"user_id":93388,"user_login":"lawrencesears","account_id":93367,"account_name":"lawrencesears","duration":0.8,"created_at":"2018-07-18T11:55:27.000Z","updated_at":"2018-07-18T15:04:27.000Z","url":"https://vzaar.com/videos/15380130","seo_url":null,"asset_url":"https://view.vzaar.com/15380130/video","poster_url":"https://view.vzaar.com/15380130/image","thumbnail_url":"https://view.vzaar.com/15380130/thumb","embed_code":"<div
        class=\"vz-container\" style=\"position:relative;padding-bottom:75.0%;overflow:hidden;height:0;max-width:100%;\"><iframe
        id=\"vzvd-15380130\" name=\"vzvd-15380130\" title=\"video player\" type=\"text/html\"
        width=\"100%\" height=\"100%\" frameborder=\"0\" allowfullscreen allowTransparency=\"true\"
        src=\"https://view.vzaar.com/15380130/player\" allow=\"autoplay\" class=\"video-player
        video-player-responsive\" style=\"position:absolute;top:0;left:0;\"></iframe></div>","categories":[],"adverts":[{"advert_id":64,"name":"IAB
        1","tag":"https://pubads.g.doubleclick.net/gampad/ads?sz=640x480&iu=/124319096/external/single_ad_samples&ciu_szs=300x250&impl=s&gdfp_req=1&env=vp&output=vast&unviewed_position_start=1&cust_params=deployment%3Ddevsite%26sample_ct%3Dlinear&correlator=","position":"pre","placement_scope":"user","created_at":"2020-12-17T10:45:45.000Z","updated_at":"2020-12-17T10:45:45.000Z"}],"renditions":[{"id":789514,"code":"magic","width":640,"height":480,"bitrate":1041,"framerate":"29.97","status":"finished","size_in_bytes":114909,"url":"https://view.vzaar.com/15380130/download/magic"},{"id":789515,"code":"hd_720","width":1280,"height":960,"bitrate":2500,"framerate":"60.0","status":"skipped","size_in_bytes":0,"url":null},{"id":789516,"code":"sd_lower","width":640,"height":480,"bitrate":730,"framerate":"60.0","status":"finished","size_in_bytes":99947,"url":"https://view.vzaar.com/15380130/download/sd_lower"}]},{"id":15367360,"title":"vzb9e43b87c7a54c3b8d0a8cbb4f0a525f.mp3","description":"","state":"ready","private":false,"user_id":93388,"user_login":"lawrencesears","account_id":93367,"account_name":"lawrencesears","duration":26.9,"created_at":"2018-07-17T15:30:57.000Z","updated_at":"2018-07-17T18:03:43.000Z","url":"https://vzaar.com/videos/15367360","seo_url":null,"asset_url":"https://view.vzaar.com/15367360/video","poster_url":"https://view.vzaar.com/15367360/image","thumbnail_url":"https://view.vzaar.com/15367360/thumb","embed_code":"<iframe
        id=\"vzvd-15367360\" name=\"vzvd-15367360\" title=\"video player\" type=\"text/html\"
        width=\"320\" height=\"72\" frameborder=\"0\" allowfullscreen allowTransparency=\"true\"
        src=\"https://view.vzaar.com/15367360/player?ao=1\" allow=\"autoplay\" class=\"video-player\"></iframe>","categories":[],"adverts":[{"advert_id":64,"name":"IAB
        1","tag":"https://pubads.g.doubleclick.net/gampad/ads?sz=640x480&iu=/124319096/external/single_ad_samples&ciu_szs=300x250&impl=s&gdfp_req=1&env=vp&output=vast&unviewed_position_start=1&cust_params=deployment%3Ddevsite%26sample_ct%3Dlinear&correlator=","position":"pre","placement_scope":"user","created_at":"2020-12-17T10:45:45.000Z","updated_at":"2020-12-17T10:45:45.000Z"}],"renditions":[{"id":788208,"code":"audio","width":320,"height":72,"bitrate":128,"framerate":null,"status":"finished","size_in_bytes":431515,"url":"https://view.vzaar.com/15367360/download/audio"}]}],"meta":{"total_count":1075,"links":{"first":"https://app.vzaar.com/api/v2/videos?order=asc&page=1&per_page=3&state=ready","next":"https://app.vzaar.com/api/v2/videos?order=asc&page=2&per_page=3&state=ready","previous":null,"last":"https://app.vzaar.com/api/v2/videos?order=asc&page=359&per_page=3&state=ready"}}}'
    http_version: 
  recorded_at: Wed, 05 May 2021 14:55:50 GMT
- request:
    method: get
    uri: https://app.vzaar.com/api/v2/videos
    body:
      encoding: UTF-8
      string: ''
    headers:
      User-Agent:
      - HTTPClient/1.0 (2.8.3, ruby 2.5.8 (2020-03-31))
      Accept:
      - "*/*"
      Date:
      - Wed, 05 May 2021 14:55:50 GMT
      X-Auth-Token:
      - xdyzFwz8DV5pq1MDGE7e
      X-Client-Id:
      - capo-sixth-gale
      Content-Type:
      - application/json
  response:
    status:
      code: 200
      message: OK
    headers:
      Cache-Control:
      - max-age=0, private, must-revalidate
      Content-Type:
      - application/json
      Date:
      - Wed, 05 May 2021 14:55:51 GMT
      Etag:
      - W/"97e6ba596b3e8463d5d5b3ba39aca453"
      Server:
      - nginx
      X-Ratelimit-Limit:
      - '200'
      X-Ratelimit-Remaining:
      - '188'
      X-Ratelimit-Reset:
      - '1620226560'
      X-Ratelimit-Reset-In:
      - 10 seconds
      X-Request-Id:
      - f7e17c7a-4b15-4198-8eb4-699bc21c6d63
      X-Runtime:
      - '0.238079'
      Content-Length:
      - '6243'
      Connection:
      - keep-alive
    body:
      encoding: UTF-8
      string: '{"data":[{"id":15363026,"title":"tG6mdXRXMYNA_1280_720_2487.mp4","description":"","state":"ready","private":false,"user_id":93388,"user_login":"lawrencesears","account_id":93367,"account_name":"lawrencesears","duration":46.4,"created_at":"2018-07-17T09:33:17.000Z","updated_at":"2020-03-14T21:02:40.000Z","url":"https://vzaar.com/videos/15363026","seo_url":null,"asset_url":"https://view.vzaar.com/15363026/video","poster_url":"https://view.vzaar.com/15363026/image","thumbnail_url":"https://view.vzaar.com/15363026/thumb","embed_code":"<div
        class=\"vz-container\" style=\"position:relative;padding-bottom:56.25%;overflow:hidden;height:0;max-width:100%;\"><iframe
        id=\"vzvd-15363026\" name=\"vzvd-15363026\" title=\"video player\" type=\"text/html\"
        width=\"100%\" height=\"100%\" frameborder=\"0\" allowfullscreen allowTransparency=\"true\"
        src=\"https://view.vzaar.com/15363026/player\" allow=\"autoplay\" class=\"video-player
        video-player-responsive\" style=\"position:absolute;top:0;left:0;\"></iframe></div>","categories":[],"adverts":[{"advert_id":64,"name":"IAB
        1","tag":"https://pubads.g.doubleclick.net/gampad/ads?sz=640x480&iu=/124319096/external/single_ad_samples&ciu_szs=300x250&impl=s&gdfp_req=1&env=vp&output=vast&unviewed_position_start=1&cust_params=deployment%3Ddevsite%26sample_ct%3Dlinear&correlator=","position":"pre","placement_scope":"user","created_at":"2020-12-17T10:45:45.000Z","updated_at":"2020-12-17T10:45:45.000Z"}],"renditions":[{"id":787456,"code":"hd_720","width":1280,"height":720,"bitrate":2500,"framerate":"60.0","status":"skipped","size_in_bytes":0,"url":null},{"id":787457,"code":"magic","width":1280,"height":720,"bitrate":2332,"framerate":"29.97","status":"finished","size_in_bytes":13561763,"url":"https://view.vzaar.com/15363026/download/magic"},{"id":787458,"code":"sd_lower","width":640,"height":360,"bitrate":730,"framerate":"60.0","status":"finished","size_in_bytes":4289967,"url":"https://view.vzaar.com/15363026/download/sd_lower"}]},{"id":15362890,"title":null,"description":"","state":"ready","private":false,"user_id":93388,"user_login":"lawrencesears","account_id":93367,"account_name":"lawrencesears","duration":0.8,"created_at":"2018-07-17T09:17:06.000Z","updated_at":"2020-03-14T21:02:46.000Z","url":"https://vzaar.com/videos/15362890","seo_url":null,"asset_url":"https://view.vzaar.com/15362890/video","poster_url":"https://view.vzaar.com/15362890/image","thumbnail_url":"https://view.vzaar.com/15362890/thumb","embed_code":"<div
        class=\"vz-container\" style=\"position:relative;padding-bottom:75.0%;overflow:hidden;height:0;max-width:100%;\"><iframe
        id=\"vzvd-15362890\" name=\"vzvd-15362890\" title=\"video player\" type=\"text/html\"
        width=\"100%\" height=\"100%\" frameborder=\"0\" allowfullscreen allowTransparency=\"true\"
        src=\"https://view.vzaar.com/15362890/player\" allow=\"autoplay\" class=\"video-player
        video-player-responsive\" style=\"position:absolute;top:0;left:0;\"></iframe></div>","categories":[],"adverts":[{"advert_id":64,"name":"IAB
        1","tag":"https://pubads.g.doubleclick.net/gampad/ads?sz=640x480&iu=/124319096/external/single_ad_samples&ciu_szs=300x250&impl=s&gdfp_req=1&env=vp&output=vast&unviewed_position_start=1&cust_params=deployment%3Ddevsite%26sample_ct%3Dlinear&correlator=","position":"pre","placement_scope":"user","created_at":"2020-12-17T10:45:45.000Z","updated_at":"2020-12-17T10:45:45.000Z"}],"renditions":[{"id":787447,"code":"magic","width":640,"height":480,"bitrate":1041,"framerate":"29.97","status":"finished","size_in_bytes":114909,"url":"https://view.vzaar.com/15362890/download/magic"},{"id":787448,"code":"sd_lower","width":640,"height":480,"bitrate":730,"framerate":"60.0","status":"finished","size_in_bytes":99947,"url":"https://view.vzaar.com/15362890/download/sd_lower"},{"id":787449,"code":"hd_720","width":1280,"height":960,"bitrate":2500,"framerate":"60.0","status":"skipped","size_in_bytes":0,"url":null}]},{"id":15362841,"title":null,"description":null,"state":"ready","private":false,"user_id":93388,"user_login":"lawrencesears","account_id":93367,"account_name":"lawrencesears","duration":0.8,"created_at":"2018-07-17T09:11:09.000Z","updated_at":"2020-03-16T00:01:32.000Z","url":"https://vzaar.com/videos/15362841","seo_url":null,"asset_url":"https://view.vzaar.com/15362841/video","poster_url":"https://view.vzaar.com/15362841/image","thumbnail_url":"https://view.vzaar.com/15362841/thumb","embed_code":"<div
        class=\"vz-container\" style=\"position:relative;padding-bottom:75.0%;overflow:hidden;height:0;max-width:100%;\"><iframe
        id=\"vzvd-15362841\" name=\"vzvd-15362841\" title=\"video player\" type=\"text/html\"
        width=\"100%\" height=\"100%\" frameborder=\"0\" allowfullscreen allowTransparency=\"true\"
        src=\"https://view.vzaar.com/15362841/player\" allow=\"autoplay\" class=\"video-player
        video-player-responsive\" style=\"position:absolute;top:0;left:0;\"></iframe></div>","categories":[],"adverts":[{"advert_id":64,"name":"IAB
        1","tag":"https://pubads.g.doubleclick.net/gampad/ads?sz=640x480&iu=/124319096/external/single_ad_samples&ciu_szs=300x250&impl=s&gdfp_req=1&env=vp&output=vast&unviewed_position_start=1&cust_params=deployment%3Ddevsite%26sample_ct%3Dlinear&correlator=","position":"pre","placement_scope":"user","created_at":"2020-12-17T10:45:45.000Z","updated_at":"2020-12-17T10:45:45.000Z"}],"renditions":[{"id":787438,"code":"magic","width":640,"height":480,"bitrate":1041,"framerate":"29.97","status":"finished","size_in_bytes":114909,"url":"https://view.vzaar.com/15362841/download/magic"},{"id":787439,"code":"hd_720","width":1280,"height":960,"bitrate":2500,"framerate":"60.0","status":"skipped","size_in_bytes":0,"url":null},{"id":787440,"code":"sd_lower","width":640,"height":480,"bitrate":730,"framerate":"60.0","status":"finished","size_in_bytes":99947,"url":"https://view.vzaar.com/15362841/download/sd_lower"}]}],"meta":{"total_count":1075,"links":{"first":"https://app.vzaar.com/api/v2/videos?order=asc&page=1&per_page=3&state=ready","next":"https://app.vzaar.com/api/v2/videos?order=asc&page=3&per_page=3&state=ready","previous":"https://app.vzaar.com/api/v2/videos?order=asc&page=1&per_page=3&state=ready","last":"https://app.vzaar.com/api/v2/videos?order=asc&page=359&per_page=3&state=ready"}}}'
    http_version: 
  recorded_at: Wed, 05 May 2021 14:55:51 GMT
recorded_with: VCR 3.0.3
