---
http_interactions:
- request:
    method: get
    uri: https://app.vzaar.com/api/v2/videos?per_page=3
    body:
      encoding: UTF-8
      string: ''
    headers:
      User-Agent:
      - HTTPClient/1.0 (2.8.3, ruby 2.5.8 (2020-03-31))
      Accept:
      - "*/*"
      Date:
      - Fri, 14 May 2021 09:30:04 GMT
      X-Auth-Token:
      - LHuEum7qhBwmBdSsq2o4
      X-Client-Id:
      - cccc-dod-dine
      Content-Type:
      - application/json
  response:
    status:
      code: 200
      message: OK
    headers:
      Cache-Control:
      - max-age=0, private, must-revalidate
      Content-Type:
      - application/json
      Date:
      - Fri, 14 May 2021 09:30:05 GMT
      Etag:
      - W/"299ccdb106870be8808b269df0135224"
      Server:
      - nginx
      X-Ratelimit-Limit:
      - '200'
      X-Ratelimit-Remaining:
      - '197'
      X-Ratelimit-Reset:
      - '1620984660'
      X-Ratelimit-Reset-In:
      - 55 seconds
      X-Request-Id:
      - 90ecf21d-1f03-48d0-b554-42b355f2acf2
      X-Runtime:
      - '0.245483'
      Content-Length:
      - '5410'
      Connection:
      - keep-alive
    body:
      encoding: UTF-8
      string: '{"data":[{"id":22985103,"title":"VoE162C01416Tam.mp4","description":"","state":"ready","private":false,"user_id":148269,"user_login":"lawrence-sdks","account_id":142646,"account_name":"lawrence-sdks","duration":286.4,"created_at":"2021-05-13T16:47:33.000Z","updated_at":"2021-05-13T21:04:06.000Z","url":"https://vzaar.com/videos/22985103","seo_url":null,"asset_url":"https://view.vzaar.com/22985103/video","poster_url":"https://view.vzaar.com/22985103/image","thumbnail_url":"https://view.vzaar.com/22985103/thumb","embed_code":"<div
        class=\"vz-container\" style=\"position:relative;padding-bottom:62.5%;overflow:hidden;height:0;max-width:100%;\"><iframe
        id=\"vzvd-22985103\" name=\"vzvd-22985103\" title=\"video player\" type=\"text/html\"
        width=\"100%\" height=\"100%\" frameborder=\"0\" allowfullscreen allowTransparency=\"true\"
        src=\"https://view.vzaar.com/22985103/player\" allow=\"autoplay\" class=\"video-player
        video-player-responsive\" style=\"position:absolute;top:0;left:0;\"></iframe></div>","categories":[],"adverts":[],"renditions":[{"id":7632752,"code":"magic","width":1440,"height":900,"bitrate":339,"framerate":"60.0","status":"finished","size_in_bytes":16475600,"url":"https://view.vzaar.com/22985103/download/magic"},{"id":7632753,"code":"ld","width":480,"height":300,"bitrate":365,"framerate":"60.0","status":"skipped","size_in_bytes":0,"url":null},{"id":7632754,"code":"hd_720","width":1280,"height":800,"bitrate":2500,"framerate":"60.0","status":"skipped","size_in_bytes":0,"url":null},{"id":7632760,"code":"sd_higher","width":960,"height":600,"bitrate":1200,"framerate":"60.0","status":"skipped","size_in_bytes":0,"url":null}]},{"id":22985102,"title":"Cisco
        - Enterprise.mp4","description":"","state":"ready","private":false,"user_id":148269,"user_login":"lawrence-sdks","account_id":142646,"account_name":"lawrence-sdks","duration":8798.0,"created_at":"2021-05-13T16:47:30.000Z","updated_at":"2021-05-13T21:03:51.000Z","url":"https://vzaar.com/videos/22985102","seo_url":null,"asset_url":"https://view.vzaar.com/22985102/video","poster_url":"https://view.vzaar.com/22985102/image","thumbnail_url":"https://view.vzaar.com/22985102/thumb","embed_code":"<div
        class=\"vz-container\" style=\"position:relative;padding-bottom:56.25%;overflow:hidden;height:0;max-width:100%;\"><iframe
        id=\"vzvd-22985102\" name=\"vzvd-22985102\" title=\"video player\" type=\"text/html\"
        width=\"100%\" height=\"100%\" frameborder=\"0\" allowfullscreen allowTransparency=\"true\"
        src=\"https://view.vzaar.com/22985102/player\" allow=\"autoplay\" class=\"video-player
        video-player-responsive\" style=\"position:absolute;top:0;left:0;\"></iframe></div>","categories":[],"adverts":[],"renditions":[{"id":7632731,"code":"sd_higher","width":960,"height":540,"bitrate":1200,"framerate":"60.0","status":"finished","size_in_bytes":986309219,"url":"https://view.vzaar.com/22985102/download/sd_higher"},{"id":7632732,"code":"hd_720","width":1280,"height":720,"bitrate":2500,"framerate":"60.0","status":"skipped","size_in_bytes":0,"url":null},{"id":7632733,"code":"magic","width":1280,"height":720,"bitrate":1418,"framerate":"60.0","status":"finished","size_in_bytes":1345296849,"url":"https://view.vzaar.com/22985102/download/magic"},{"id":7632734,"code":"ld","width":480,"height":270,"bitrate":365,"framerate":"60.0","status":"finished","size_in_bytes":357736359,"url":"https://view.vzaar.com/22985102/download/ld"}]},{"id":22985067,"title":"LS
        TEST VIDEO","description":"","state":"ready","private":false,"user_id":148269,"user_login":"lawrence-sdks","account_id":142646,"account_name":"lawrence-sdks","duration":8930.0,"created_at":"2021-05-13T16:40:29.000Z","updated_at":"2021-05-14T09:29:54.000Z","url":"https://vzaar.com/videos/22985067","seo_url":null,"asset_url":"https://view.vzaar.com/22985067/video","poster_url":"https://view.vzaar.com/22985067/image","thumbnail_url":"https://view.vzaar.com/22985067/thumb","embed_code":"<div
        class=\"vz-container\" style=\"position:relative;padding-bottom:56.25%;overflow:hidden;height:0;max-width:100%;\"><iframe
        id=\"vzvd-22985067\" name=\"vzvd-22985067\" title=\"video player\" type=\"text/html\"
        width=\"100%\" height=\"100%\" frameborder=\"0\" allowfullscreen allowTransparency=\"true\"
        src=\"https://view.vzaar.com/22985067/player\" allow=\"autoplay\" class=\"video-player
        video-player-responsive\" style=\"position:absolute;top:0;left:0;\"></iframe></div>","categories":[],"adverts":[],"renditions":[{"id":7632635,"code":"ld","width":480,"height":270,"bitrate":365,"framerate":"60.0","status":"finished","size_in_bytes":327495971,"url":"https://view.vzaar.com/22985067/download/ld"},{"id":7632636,"code":"magic","width":1280,"height":720,"bitrate":1276,"framerate":"60.0","status":"finished","size_in_bytes":1366171864,"url":"https://view.vzaar.com/22985067/download/magic"},{"id":7632637,"code":"sd_higher","width":960,"height":540,"bitrate":1200,"framerate":"60.0","status":"skipped","size_in_bytes":0,"url":null},{"id":7632638,"code":"hd_720","width":1280,"height":720,"bitrate":2500,"framerate":"60.0","status":"skipped","size_in_bytes":0,"url":null}]}],"meta":{"total_count":7,"links":{"first":"https://app.vzaar.com/api/v2/videos?order=asc&page=1&per_page=3&state=ready","next":"https://app.vzaar.com/api/v2/videos?order=asc&page=2&per_page=3&state=ready","previous":null,"last":"https://app.vzaar.com/api/v2/videos?order=asc&page=3&per_page=3&state=ready"}}}'
    http_version: 
  recorded_at: Fri, 14 May 2021 09:30:05 GMT
recorded_with: VCR 3.0.3
