---
http_interactions:
- request:
    method: get
    uri: https://app.vzaar.com/api/v2/videos?per_page=3
    body:
      encoding: UTF-8
      string: ''
    headers:
      User-Agent:
      - HTTPClient/1.0 (2.8.3, ruby 2.5.8 (2020-03-31))
      Accept:
      - "*/*"
      Date:
      - Fri, 14 May 2021 09:30:10 GMT
      X-Auth-Token:
      - LHuEum7qhBwmBdSsq2o4
      X-Client-Id:
      - cccc-dod-dine
      Content-Type:
      - application/json
  response:
    status:
      code: 200
      message: OK
    headers:
      Cache-Control:
      - max-age=0, private, must-revalidate
      Content-Type:
      - application/json
      Date:
      - Fri, 14 May 2021 09:30:11 GMT
      Etag:
      - W/"299ccdb106870be8808b269df0135224"
      Server:
      - nginx
      X-Ratelimit-Limit:
      - '200'
      X-Ratelimit-Remaining:
      - '194'
      X-Ratelimit-Reset:
      - '1620984660'
      X-Ratelimit-Reset-In:
      - 50 seconds
      X-Request-Id:
      - 3656502b-b244-45ac-97e7-b01b32be21b8
      X-Runtime:
      - '0.643144'
      Content-Length:
      - '5410'
      Connection:
      - keep-alive
    body:
      encoding: UTF-8
      string: '{"data":[{"id":22985103,"title":"VoE162C01416Tam.mp4","description":"","state":"ready","private":false,"user_id":148269,"user_login":"lawrence-sdks","account_id":142646,"account_name":"lawrence-sdks","duration":286.4,"created_at":"2021-05-13T16:47:33.000Z","updated_at":"2021-05-13T21:04:06.000Z","url":"https://vzaar.com/videos/22985103","seo_url":null,"asset_url":"https://view.vzaar.com/22985103/video","poster_url":"https://view.vzaar.com/22985103/image","thumbnail_url":"https://view.vzaar.com/22985103/thumb","embed_code":"<div
        class=\"vz-container\" style=\"position:relative;padding-bottom:62.5%;overflow:hidden;height:0;max-width:100%;\"><iframe
        id=\"vzvd-22985103\" name=\"vzvd-22985103\" title=\"video player\" type=\"text/html\"
        width=\"100%\" height=\"100%\" frameborder=\"0\" allowfullscreen allowTransparency=\"true\"
        src=\"https://view.vzaar.com/22985103/player\" allow=\"autoplay\" class=\"video-player
        video-player-responsive\" style=\"position:absolute;top:0;left:0;\"></iframe></div>","categories":[],"adverts":[],"renditions":[{"id":7632752,"code":"magic","width":1440,"height":900,"bitrate":339,"framerate":"60.0","status":"finished","size_in_bytes":16475600,"url":"https://view.vzaar.com/22985103/download/magic"},{"id":7632753,"code":"ld","width":480,"height":300,"bitrate":365,"framerate":"60.0","status":"skipped","size_in_bytes":0,"url":null},{"id":7632754,"code":"hd_720","width":1280,"height":800,"bitrate":2500,"framerate":"60.0","status":"skipped","size_in_bytes":0,"url":null},{"id":7632760,"code":"sd_higher","width":960,"height":600,"bitrate":1200,"framerate":"60.0","status":"skipped","size_in_bytes":0,"url":null}]},{"id":22985102,"title":"Cisco
        - Enterprise.mp4","description":"","state":"ready","private":false,"user_id":148269,"user_login":"lawrence-sdks","account_id":142646,"account_name":"lawrence-sdks","duration":8798.0,"created_at":"2021-05-13T16:47:30.000Z","updated_at":"2021-05-13T21:03:51.000Z","url":"https://vzaar.com/videos/22985102","seo_url":null,"asset_url":"https://view.vzaar.com/22985102/video","poster_url":"https://view.vzaar.com/22985102/image","thumbnail_url":"https://view.vzaar.com/22985102/thumb","embed_code":"<div
        class=\"vz-container\" style=\"position:relative;padding-bottom:56.25%;overflow:hidden;height:0;max-width:100%;\"><iframe
        id=\"vzvd-22985102\" name=\"vzvd-22985102\" title=\"video player\" type=\"text/html\"
        width=\"100%\" height=\"100%\" frameborder=\"0\" allowfullscreen allowTransparency=\"true\"
        src=\"https://view.vzaar.com/22985102/player\" allow=\"autoplay\" class=\"video-player
        video-player-responsive\" style=\"position:absolute;top:0;left:0;\"></iframe></div>","categories":[],"adverts":[],"renditions":[{"id":7632731,"code":"sd_higher","width":960,"height":540,"bitrate":1200,"framerate":"60.0","status":"finished","size_in_bytes":986309219,"url":"https://view.vzaar.com/22985102/download/sd_higher"},{"id":7632732,"code":"hd_720","width":1280,"height":720,"bitrate":2500,"framerate":"60.0","status":"skipped","size_in_bytes":0,"url":null},{"id":7632733,"code":"magic","width":1280,"height":720,"bitrate":1418,"framerate":"60.0","status":"finished","size_in_bytes":1345296849,"url":"https://view.vzaar.com/22985102/download/magic"},{"id":7632734,"code":"ld","width":480,"height":270,"bitrate":365,"framerate":"60.0","status":"finished","size_in_bytes":357736359,"url":"https://view.vzaar.com/22985102/download/ld"}]},{"id":22985067,"title":"LS
        TEST VIDEO","description":"","state":"ready","private":false,"user_id":148269,"user_login":"lawrence-sdks","account_id":142646,"account_name":"lawrence-sdks","duration":8930.0,"created_at":"2021-05-13T16:40:29.000Z","updated_at":"2021-05-14T09:29:54.000Z","url":"https://vzaar.com/videos/22985067","seo_url":null,"asset_url":"https://view.vzaar.com/22985067/video","poster_url":"https://view.vzaar.com/22985067/image","thumbnail_url":"https://view.vzaar.com/22985067/thumb","embed_code":"<div
        class=\"vz-container\" style=\"position:relative;padding-bottom:56.25%;overflow:hidden;height:0;max-width:100%;\"><iframe
        id=\"vzvd-22985067\" name=\"vzvd-22985067\" title=\"video player\" type=\"text/html\"
        width=\"100%\" height=\"100%\" frameborder=\"0\" allowfullscreen allowTransparency=\"true\"
        src=\"https://view.vzaar.com/22985067/player\" allow=\"autoplay\" class=\"video-player
        video-player-responsive\" style=\"position:absolute;top:0;left:0;\"></iframe></div>","categories":[],"adverts":[],"renditions":[{"id":7632635,"code":"ld","width":480,"height":270,"bitrate":365,"framerate":"60.0","status":"finished","size_in_bytes":327495971,"url":"https://view.vzaar.com/22985067/download/ld"},{"id":7632636,"code":"magic","width":1280,"height":720,"bitrate":1276,"framerate":"60.0","status":"finished","size_in_bytes":1366171864,"url":"https://view.vzaar.com/22985067/download/magic"},{"id":7632637,"code":"sd_higher","width":960,"height":540,"bitrate":1200,"framerate":"60.0","status":"skipped","size_in_bytes":0,"url":null},{"id":7632638,"code":"hd_720","width":1280,"height":720,"bitrate":2500,"framerate":"60.0","status":"skipped","size_in_bytes":0,"url":null}]}],"meta":{"total_count":7,"links":{"first":"https://app.vzaar.com/api/v2/videos?order=asc&page=1&per_page=3&state=ready","next":"https://app.vzaar.com/api/v2/videos?order=asc&page=2&per_page=3&state=ready","previous":null,"last":"https://app.vzaar.com/api/v2/videos?order=asc&page=3&per_page=3&state=ready"}}}'
    http_version: 
  recorded_at: Fri, 14 May 2021 09:30:11 GMT
- request:
    method: get
    uri: https://app.vzaar.com/api/v2/videos
    body:
      encoding: UTF-8
      string: ''
    headers:
      User-Agent:
      - HTTPClient/1.0 (2.8.3, ruby 2.5.8 (2020-03-31))
      Accept:
      - "*/*"
      Date:
      - Fri, 14 May 2021 09:30:11 GMT
      X-Auth-Token:
      - LHuEum7qhBwmBdSsq2o4
      X-Client-Id:
      - cccc-dod-dine
      Content-Type:
      - application/json
  response:
    status:
      code: 200
      message: OK
    headers:
      Cache-Control:
      - max-age=0, private, must-revalidate
      Content-Type:
      - application/json
      Date:
      - Fri, 14 May 2021 09:30:12 GMT
      Etag:
      - W/"9f910323f8f05a8a4cb10ea01cfd40d4"
      Server:
      - nginx
      X-Ratelimit-Limit:
      - '200'
      X-Ratelimit-Remaining:
      - '193'
      X-Ratelimit-Reset:
      - '1620984660'
      X-Ratelimit-Reset-In:
      - 49 seconds
      X-Request-Id:
      - e931d79b-7d7f-4aed-895a-fe999e65d3d9
      X-Runtime:
      - '0.233941'
      Content-Length:
      - '2118'
      Connection:
      - keep-alive
    body:
      encoding: UTF-8
      string: '{"data":[{"id":22984857,"title":"LS TEST VIDEO","description":"","state":"ready","private":false,"user_id":148269,"user_login":"lawrence-sdks","account_id":142646,"account_name":"lawrence-sdks","duration":634.6,"created_at":"2021-05-13T16:11:23.000Z","updated_at":"2021-05-14T09:28:52.000Z","url":"https://vzaar.com/videos/22984857","seo_url":null,"asset_url":"https://view.vzaar.com/22984857/video","poster_url":"https://view.vzaar.com/22984857/image","thumbnail_url":"https://view.vzaar.com/22984857/thumb","embed_code":"<div
        class=\"vz-container\" style=\"position:relative;padding-bottom:56.25%;overflow:hidden;height:0;max-width:100%;\"><iframe
        id=\"vzvd-22984857\" name=\"vzvd-22984857\" title=\"video player\" type=\"text/html\"
        width=\"100%\" height=\"100%\" frameborder=\"0\" allowfullscreen allowTransparency=\"true\"
        src=\"https://view.vzaar.com/22984857/player\" allow=\"autoplay\" class=\"video-player
        video-player-responsive\" style=\"position:absolute;top:0;left:0;\"></iframe></div>","categories":[],"adverts":[],"renditions":[{"id":7632089,"code":"ld","width":480,"height":270,"bitrate":365,"framerate":"60.0","status":"finished","size_in_bytes":35108961,"url":"https://view.vzaar.com/22984857/download/ld"},{"id":7632090,"code":"hd_720","width":1280,"height":720,"bitrate":2500,"framerate":"60.0","status":"finished","size_in_bytes":213626430,"url":"https://view.vzaar.com/22984857/download/hd_720"},{"id":7632091,"code":"sd_higher","width":960,"height":540,"bitrate":1200,"framerate":"60.0","status":"finished","size_in_bytes":106440775,"url":"https://view.vzaar.com/22984857/download/sd_higher"},{"id":7632092,"code":"magic","width":1920,"height":1080,"bitrate":3499,"framerate":"60.0","status":"finished","size_in_bytes":291377364,"url":"https://view.vzaar.com/22984857/download/magic"}]}],"meta":{"total_count":7,"links":{"first":"https://app.vzaar.com/api/v2/videos?order=asc&page=1&per_page=3&state=ready","next":null,"previous":"https://app.vzaar.com/api/v2/videos?order=asc&page=2&per_page=3&state=ready","last":"https://app.vzaar.com/api/v2/videos?order=asc&page=3&per_page=3&state=ready"}}}'
    http_version: 
  recorded_at: Fri, 14 May 2021 09:30:12 GMT
recorded_with: VCR 3.0.3
