---
http_interactions:
- request:
    method: get
    uri: https://app.vzaar.com/api/v2/videos?page=4&per_page=3
    body:
      encoding: UTF-8
      string: ''
    headers:
      User-Agent:
      - HTTPClient/1.0 (2.8.3, ruby 2.5.8 (2020-03-31))
      Accept:
      - "*/*"
      Date:
      - Wed, 05 May 2021 14:55:52 GMT
      X-Auth-Token:
      - xdyzFwz8DV5pq1MDGE7e
      X-Client-Id:
      - capo-sixth-gale
      Content-Type:
      - application/json
  response:
    status:
      code: 200
      message: OK
    headers:
      Cache-Control:
      - max-age=0, private, must-revalidate
      Content-Type:
      - application/json
      Date:
      - Wed, 05 May 2021 14:55:53 GMT
      Etag:
      - W/"c04cc0c58107b8ef68d59d6cd4db3d98"
      Server:
      - nginx
      X-Ratelimit-Limit:
      - '200'
      X-Ratelimit-Remaining:
      - '185'
      X-Ratelimit-Reset:
      - '1620226560'
      X-Ratelimit-Reset-In:
      - 8 seconds
      X-Request-Id:
      - c5f3fb0e-d947-4612-8710-e543bdaeddb8
      X-Runtime:
      - '0.352325'
      Content-Length:
      - '5984'
      Connection:
      - keep-alive
    body:
      encoding: UTF-8
      string: '{"data":[{"id":15362340,"title":"vzb9e43b87c7a54c3b8d0a8cbb4f0a525f.mp3","description":"","state":"ready","private":false,"user_id":93388,"user_login":"lawrencesears","account_id":93367,"account_name":"lawrencesears","duration":26.9,"created_at":"2018-07-17T08:18:01.000Z","updated_at":"2020-03-16T00:01:47.000Z","url":"https://vzaar.com/videos/15362340","seo_url":null,"asset_url":"https://view.vzaar.com/15362340/video","poster_url":"https://view.vzaar.com/15362340/image","thumbnail_url":"https://view.vzaar.com/15362340/thumb","embed_code":"<iframe
        id=\"vzvd-15362340\" name=\"vzvd-15362340\" title=\"video player\" type=\"text/html\"
        width=\"320\" height=\"72\" frameborder=\"0\" allowfullscreen allowTransparency=\"true\"
        src=\"https://view.vzaar.com/15362340/player?ao=1\" allow=\"autoplay\" class=\"video-player\"></iframe>","categories":[],"adverts":[{"advert_id":64,"name":"IAB
        1","tag":"https://pubads.g.doubleclick.net/gampad/ads?sz=640x480&iu=/124319096/external/single_ad_samples&ciu_szs=300x250&impl=s&gdfp_req=1&env=vp&output=vast&unviewed_position_start=1&cust_params=deployment%3Ddevsite%26sample_ct%3Dlinear&correlator=","position":"pre","placement_scope":"user","created_at":"2020-12-17T10:45:45.000Z","updated_at":"2020-12-17T10:45:45.000Z"}],"renditions":[{"id":787345,"code":"audio","width":320,"height":72,"bitrate":128,"framerate":null,"status":"finished","size_in_bytes":431515,"url":"https://view.vzaar.com/15362340/download/audio"}]},{"id":15362339,"title":"tG6mdXRXMYNA_1280_720_2487.mp4","description":"","state":"ready","private":false,"user_id":93388,"user_login":"lawrencesears","account_id":93367,"account_name":"lawrencesears","duration":46.4,"created_at":"2018-07-17T08:18:00.000Z","updated_at":"2020-03-16T00:01:45.000Z","url":"https://vzaar.com/videos/15362339","seo_url":null,"asset_url":"https://view.vzaar.com/15362339/video","poster_url":"https://view.vzaar.com/15362339/image","thumbnail_url":"https://view.vzaar.com/15362339/thumb","embed_code":"<div
        class=\"vz-container\" style=\"position:relative;padding-bottom:56.25%;overflow:hidden;height:0;max-width:100%;\"><iframe
        id=\"vzvd-15362339\" name=\"vzvd-15362339\" title=\"video player\" type=\"text/html\"
        width=\"100%\" height=\"100%\" frameborder=\"0\" allowfullscreen allowTransparency=\"true\"
        src=\"https://view.vzaar.com/15362339/player\" allow=\"autoplay\" class=\"video-player
        video-player-responsive\" style=\"position:absolute;top:0;left:0;\"></iframe></div>","categories":[],"adverts":[{"advert_id":64,"name":"IAB
        1","tag":"https://pubads.g.doubleclick.net/gampad/ads?sz=640x480&iu=/124319096/external/single_ad_samples&ciu_szs=300x250&impl=s&gdfp_req=1&env=vp&output=vast&unviewed_position_start=1&cust_params=deployment%3Ddevsite%26sample_ct%3Dlinear&correlator=","position":"pre","placement_scope":"user","created_at":"2020-12-17T10:45:45.000Z","updated_at":"2020-12-17T10:45:45.000Z"}],"renditions":[{"id":787346,"code":"sd_lower","width":640,"height":360,"bitrate":730,"framerate":"60.0","status":"finished","size_in_bytes":4289967,"url":"https://view.vzaar.com/15362339/download/sd_lower"},{"id":787347,"code":"magic","width":1280,"height":720,"bitrate":2332,"framerate":"29.97","status":"finished","size_in_bytes":13561763,"url":"https://view.vzaar.com/15362339/download/magic"},{"id":787348,"code":"hd_720","width":1280,"height":720,"bitrate":2500,"framerate":"60.0","status":"skipped","size_in_bytes":0,"url":null},{"id":787349,"code":"hd_720","width":1280,"height":720,"bitrate":2500,"framerate":"60.0","status":"skipped","size_in_bytes":0,"url":null}]},{"id":15362338,"title":"e415e54028e64852b09a0d78bdb4430b.mov","description":"","state":"ready","private":false,"user_id":93388,"user_login":"lawrencesears","account_id":93367,"account_name":"lawrencesears","duration":7.5,"created_at":"2018-07-17T08:17:51.000Z","updated_at":"2020-03-16T00:01:44.000Z","url":"https://vzaar.com/videos/15362338","seo_url":null,"asset_url":"https://view.vzaar.com/15362338/video","poster_url":"https://view.vzaar.com/15362338/image","thumbnail_url":"https://view.vzaar.com/15362338/thumb","embed_code":"<div
        class=\"vz-container\" style=\"position:relative;padding-bottom:56.25%;overflow:hidden;height:0;max-width:100%;\"><iframe
        id=\"vzvd-15362338\" name=\"vzvd-15362338\" title=\"video player\" type=\"text/html\"
        width=\"100%\" height=\"100%\" frameborder=\"0\" allowfullscreen allowTransparency=\"true\"
        src=\"https://view.vzaar.com/15362338/player\" allow=\"autoplay\" class=\"video-player
        video-player-responsive\" style=\"position:absolute;top:0;left:0;\"></iframe></div>","categories":[],"adverts":[{"advert_id":64,"name":"IAB
        1","tag":"https://pubads.g.doubleclick.net/gampad/ads?sz=640x480&iu=/124319096/external/single_ad_samples&ciu_szs=300x250&impl=s&gdfp_req=1&env=vp&output=vast&unviewed_position_start=1&cust_params=deployment%3Ddevsite%26sample_ct%3Dlinear&correlator=","position":"pre","placement_scope":"user","created_at":"2020-12-17T10:45:45.000Z","updated_at":"2020-12-17T10:45:45.000Z"}],"renditions":[{"id":787342,"code":"magic","width":960,"height":540,"bitrate":1749,"framerate":"29.97","status":"finished","size_in_bytes":1984871,"url":"https://view.vzaar.com/15362338/download/magic"},{"id":787343,"code":"hd_720","width":1280,"height":720,"bitrate":2500,"framerate":"60.0","status":"finished","size_in_bytes":2686075,"url":"https://view.vzaar.com/15362338/download/hd_720"},{"id":787344,"code":"sd_lower","width":640,"height":360,"bitrate":730,"framerate":"60.0","status":"finished","size_in_bytes":933380,"url":"https://view.vzaar.com/15362338/download/sd_lower"}]}],"meta":{"total_count":1075,"links":{"first":"https://app.vzaar.com/api/v2/videos?order=asc&page=1&per_page=3&state=ready","next":"https://app.vzaar.com/api/v2/videos?order=asc&page=5&per_page=3&state=ready","previous":"https://app.vzaar.com/api/v2/videos?order=asc&page=3&per_page=3&state=ready","last":"https://app.vzaar.com/api/v2/videos?order=asc&page=359&per_page=3&state=ready"}}}'
    http_version: 
  recorded_at: Wed, 05 May 2021 14:55:53 GMT
- request:
    method: get
    uri: https://app.vzaar.com/api/v2/videos
    body:
      encoding: UTF-8
      string: ''
    headers:
      User-Agent:
      - HTTPClient/1.0 (2.8.3, ruby 2.5.8 (2020-03-31))
      Accept:
      - "*/*"
      Date:
      - Wed, 05 May 2021 14:55:53 GMT
      X-Auth-Token:
      - xdyzFwz8DV5pq1MDGE7e
      X-Client-Id:
      - capo-sixth-gale
      Content-Type:
      - application/json
  response:
    status:
      code: 200
      message: OK
    headers:
      Cache-Control:
      - max-age=0, private, must-revalidate
      Content-Type:
      - application/json
      Date:
      - Wed, 05 May 2021 14:55:53 GMT
      Etag:
      - W/"c9ffd2d049fd6057b0b40cef4b73b9c9"
      Server:
      - nginx
      X-Ratelimit-Limit:
      - '200'
      X-Ratelimit-Remaining:
      - '184'
      X-Ratelimit-Reset:
      - '1620226560'
      X-Ratelimit-Reset-In:
      - 7 seconds
      X-Request-Id:
      - 9887e161-8aae-4786-9bd9-b287d145c106
      X-Runtime:
      - '0.148477'
      Content-Length:
      - '6212'
      Connection:
      - keep-alive
    body:
      encoding: UTF-8
      string: '{"data":[{"id":15362840,"title":null,"description":null,"state":"ready","private":false,"user_id":93388,"user_login":"lawrencesears","account_id":93367,"account_name":"lawrencesears","duration":0.8,"created_at":"2018-07-17T09:11:01.000Z","updated_at":"2020-03-16T00:01:31.000Z","url":"https://vzaar.com/videos/15362840","seo_url":null,"asset_url":"https://view.vzaar.com/15362840/video","poster_url":"https://view.vzaar.com/15362840/image","thumbnail_url":"https://view.vzaar.com/15362840/thumb","embed_code":"<div
        class=\"vz-container\" style=\"position:relative;padding-bottom:75.0%;overflow:hidden;height:0;max-width:100%;\"><iframe
        id=\"vzvd-15362840\" name=\"vzvd-15362840\" title=\"video player\" type=\"text/html\"
        width=\"100%\" height=\"100%\" frameborder=\"0\" allowfullscreen allowTransparency=\"true\"
        src=\"https://view.vzaar.com/15362840/player\" allow=\"autoplay\" class=\"video-player
        video-player-responsive\" style=\"position:absolute;top:0;left:0;\"></iframe></div>","categories":[],"adverts":[{"advert_id":64,"name":"IAB
        1","tag":"https://pubads.g.doubleclick.net/gampad/ads?sz=640x480&iu=/124319096/external/single_ad_samples&ciu_szs=300x250&impl=s&gdfp_req=1&env=vp&output=vast&unviewed_position_start=1&cust_params=deployment%3Ddevsite%26sample_ct%3Dlinear&correlator=","position":"pre","placement_scope":"user","created_at":"2020-12-17T10:45:45.000Z","updated_at":"2020-12-17T10:45:45.000Z"}],"renditions":[{"id":787435,"code":"sd_lower","width":640,"height":480,"bitrate":730,"framerate":"60.0","status":"finished","size_in_bytes":99947,"url":"https://view.vzaar.com/15362840/download/sd_lower"},{"id":787436,"code":"magic","width":640,"height":480,"bitrate":1041,"framerate":"29.97","status":"finished","size_in_bytes":114909,"url":"https://view.vzaar.com/15362840/download/magic"},{"id":787437,"code":"hd_720","width":1280,"height":960,"bitrate":2500,"framerate":"60.0","status":"skipped","size_in_bytes":0,"url":null}]},{"id":15362834,"title":null,"description":null,"state":"ready","private":false,"user_id":93388,"user_login":"lawrencesears","account_id":93367,"account_name":"lawrencesears","duration":0.8,"created_at":"2018-07-17T09:10:32.000Z","updated_at":"2020-03-16T00:01:24.000Z","url":"https://vzaar.com/videos/15362834","seo_url":null,"asset_url":"https://view.vzaar.com/15362834/video","poster_url":"https://view.vzaar.com/15362834/image","thumbnail_url":"https://view.vzaar.com/15362834/thumb","embed_code":"<div
        class=\"vz-container\" style=\"position:relative;padding-bottom:75.0%;overflow:hidden;height:0;max-width:100%;\"><iframe
        id=\"vzvd-15362834\" name=\"vzvd-15362834\" title=\"video player\" type=\"text/html\"
        width=\"100%\" height=\"100%\" frameborder=\"0\" allowfullscreen allowTransparency=\"true\"
        src=\"https://view.vzaar.com/15362834/player\" allow=\"autoplay\" class=\"video-player
        video-player-responsive\" style=\"position:absolute;top:0;left:0;\"></iframe></div>","categories":[],"adverts":[{"advert_id":64,"name":"IAB
        1","tag":"https://pubads.g.doubleclick.net/gampad/ads?sz=640x480&iu=/124319096/external/single_ad_samples&ciu_szs=300x250&impl=s&gdfp_req=1&env=vp&output=vast&unviewed_position_start=1&cust_params=deployment%3Ddevsite%26sample_ct%3Dlinear&correlator=","position":"pre","placement_scope":"user","created_at":"2020-12-17T10:45:45.000Z","updated_at":"2020-12-17T10:45:45.000Z"}],"renditions":[{"id":787432,"code":"sd_lower","width":640,"height":480,"bitrate":730,"framerate":"60.0","status":"finished","size_in_bytes":99947,"url":"https://view.vzaar.com/15362834/download/sd_lower"},{"id":787433,"code":"hd_720","width":1280,"height":960,"bitrate":2500,"framerate":"60.0","status":"skipped","size_in_bytes":0,"url":null},{"id":787434,"code":"magic","width":640,"height":480,"bitrate":1041,"framerate":"29.97","status":"finished","size_in_bytes":114909,"url":"https://view.vzaar.com/15362834/download/magic"}]},{"id":15362385,"title":null,"description":null,"state":"ready","private":false,"user_id":93388,"user_login":"lawrencesears","account_id":93367,"account_name":"lawrencesears","duration":0.8,"created_at":"2018-07-17T08:23:51.000Z","updated_at":"2020-03-14T21:03:08.000Z","url":"https://vzaar.com/videos/15362385","seo_url":null,"asset_url":"https://view.vzaar.com/15362385/video","poster_url":"https://view.vzaar.com/15362385/image","thumbnail_url":"https://view.vzaar.com/15362385/thumb","embed_code":"<div
        class=\"vz-container\" style=\"position:relative;padding-bottom:75.0%;overflow:hidden;height:0;max-width:100%;\"><iframe
        id=\"vzvd-15362385\" name=\"vzvd-15362385\" title=\"video player\" type=\"text/html\"
        width=\"100%\" height=\"100%\" frameborder=\"0\" allowfullscreen allowTransparency=\"true\"
        src=\"https://view.vzaar.com/15362385/player\" allow=\"autoplay\" class=\"video-player
        video-player-responsive\" style=\"position:absolute;top:0;left:0;\"></iframe></div>","categories":[],"adverts":[{"advert_id":64,"name":"IAB
        1","tag":"https://pubads.g.doubleclick.net/gampad/ads?sz=640x480&iu=/124319096/external/single_ad_samples&ciu_szs=300x250&impl=s&gdfp_req=1&env=vp&output=vast&unviewed_position_start=1&cust_params=deployment%3Ddevsite%26sample_ct%3Dlinear&correlator=","position":"pre","placement_scope":"user","created_at":"2020-12-17T10:45:45.000Z","updated_at":"2020-12-17T10:45:45.000Z"}],"renditions":[{"id":787350,"code":"magic","width":640,"height":480,"bitrate":1041,"framerate":"29.97","status":"finished","size_in_bytes":114909,"url":"https://view.vzaar.com/15362385/download/magic"},{"id":787351,"code":"hd_720","width":1280,"height":960,"bitrate":2500,"framerate":"60.0","status":"skipped","size_in_bytes":0,"url":null},{"id":787352,"code":"sd_lower","width":640,"height":480,"bitrate":730,"framerate":"60.0","status":"finished","size_in_bytes":99947,"url":"https://view.vzaar.com/15362385/download/sd_lower"}]}],"meta":{"total_count":1075,"links":{"first":"https://app.vzaar.com/api/v2/videos?order=asc&page=1&per_page=3&state=ready","next":"https://app.vzaar.com/api/v2/videos?order=asc&page=4&per_page=3&state=ready","previous":"https://app.vzaar.com/api/v2/videos?order=asc&page=2&per_page=3&state=ready","last":"https://app.vzaar.com/api/v2/videos?order=asc&page=359&per_page=3&state=ready"}}}'
    http_version: 
  recorded_at: Wed, 05 May 2021 14:55:53 GMT
recorded_with: VCR 3.0.3
