---
http_interactions:
- request:
    method: get
    uri: https://app.vzaar.localhost/api/v2/categories?page=3&per_page=3
    body:
      encoding: UTF-8
      string: ''
    headers:
      User-Agent:
      - HTTPClient/1.0 (2.8.2.4, ruby 2.3.1 (2016-04-26))
      Accept:
      - "*/*"
      Date:
      - Fri, 28 Oct 2016 09:32:14 GMT
      X-Auth-Token:
      - TUGXzNL17ypaougMYpR3
      X-Client-Id:
      - lair-tend72
  response:
    status:
      code: 200
      message: OK
    headers:
      Server:
      - nginx/1.10.1
      Date:
      - Fri, 28 Oct 2016 09:32:14 GMT
      Content-Type:
      - application/json
      Content-Length:
      - '1160'
      Connection:
      - keep-alive
      X-Ratelimit-Limit:
      - '200'
      X-Ratelimit-Remaining:
      - '196'
      X-Ratelimit-Reset:
      - '1477647194'
      X-Ratelimit-Reset-In:
      - 60 seconds
      Cache-Control:
      - no-store, must-revalidate, private, max-age=0
      X-Request-Id:
      - b41fec3a-ee09-483e-ad7f-7de5e165f096
      X-Runtime:
      - '0.200946'
      Set-Cookie:
      - __profilin=p%3Dt; path=/
      - __profilin=p%3Dt; path=/
      - __profilin=p%3Dt; path=/
      X-Miniprofiler-Ids:
      - '["tnakhnakmlx2pzb9hwb9","4cgrjuu9znv5flechaye","xnttqh4f6tb6mlow6fqp","51m8dv0qththvbewgq13","x64kuijqm7wvs2v4hn7w","huk6yekaaonvewr8gorm","vbeuauig2dkult7iwd88","20346z4sk0xdmgjxe013","ojqf7ud6fx3fp4ugy5qy","a3g9j8ng0wd0z95f8byp"]'
    body:
      encoding: UTF-8
      string: '{"data":[{"id":2232,"account_id":79357,"user_id":94482,"name":"PT","description":null,"parent_id":null,"depth":0,"node_children_count":0,"tree_children_count":0,"node_video_count":0,"tree_video_count":0,"created_at":"2016-08-08T12:46:50.000Z","updated_at":"2016-08-08T12:46:50.000Z"},{"id":2233,"account_id":79357,"user_id":79357,"name":"My
        room","description":null,"parent_id":334,"depth":2,"node_children_count":0,"tree_children_count":0,"node_video_count":1,"tree_video_count":1,"created_at":"2016-10-18T16:29:04.000Z","updated_at":"2016-10-18T16:29:05.000Z"},{"id":2234,"account_id":79357,"user_id":79357,"name":"Your
        room","description":null,"parent_id":334,"depth":2,"node_children_count":0,"tree_children_count":0,"node_video_count":0,"tree_video_count":0,"created_at":"2016-10-18T16:29:10.000Z","updated_at":"2016-10-18T16:29:11.000Z"}],"meta":{"total_count":12,"links":{"first":"https://app.vzaar.localhost/api/v2/categories","next":"https://app.vzaar.localhost/api/v2/categories?page=4&per_page=3","previous":"https://app.vzaar.localhost/api/v2/categories?page=2&per_page=3","last":"https://app.vzaar.localhost/api/v2/categories?page=4&per_page=3"}}}'
    http_version: 
  recorded_at: Fri, 28 Oct 2016 09:32:14 GMT
recorded_with: VCR 3.0.3
