---
http_interactions:
- request:
    method: get
    uri: https://app.vzaar.localhost/api/v2/categories?per_page=2
    body:
      encoding: UTF-8
      string: ''
    headers:
      User-Agent:
      - HTTPClient/1.0 (2.8.2.4, ruby 2.3.1 (2016-04-26))
      Accept:
      - "*/*"
      Date:
      - Fri, 18 Nov 2016 16:36:41 GMT
      X-Auth-Token:
      - TUGXzNL17ypaougMYpR3
      X-Client-Id:
      - lair-tend72
      Content-Type:
      - application/json
  response:
    status:
      code: 200
      message: OK
    headers:
      Server:
      - nginx/1.10.1
      Date:
      - Fri, 18 Nov 2016 16:36:41 GMT
      Content-Type:
      - application/json
      Content-Length:
      - '846'
      Connection:
      - keep-alive
      X-Ratelimit-Limit:
      - '200'
      X-Ratelimit-Remaining:
      - '199'
      X-Ratelimit-Reset:
      - '1479487061'
      X-Ratelimit-Reset-In:
      - 60 seconds
      Cache-Control:
      - no-store, must-revalidate, private, max-age=0
      X-Request-Id:
      - de23c9ba-1e77-4f5f-bf6c-ea0097398d21
      X-Runtime:
      - '0.137073'
      Set-Cookie:
      - __profilin=p%3Dt; path=/
      - __profilin=p%3Dt; path=/
      - __profilin=p%3Dt; path=/
      X-Miniprofiler-Ids:
      - '["d4dtbh0yl8g7mht3jgyi","yibtuiqnohudk1d26xvg","cpo3oiqmi683pkcaj816","dtxr2heeicch5rud7pjt","b4scoosnvmo0xvyqw8fy","58r4vfxumrhgue7kbsai","5dfv6js4ggxyc9qp8qwk","luelw09036g1c3l24a6i","racr2kqe0uft8glynfol","yfqme9j3k1haf6v4sm35"]'
    body:
      encoding: UTF-8
      string: '{"data":[{"id":331,"account_id":79357,"user_id":79357,"name":"Overload
        Fitness","description":null,"parent_id":null,"depth":0,"node_children_count":3,"tree_children_count":5,"node_video_count":3,"tree_video_count":6,"created_at":"2015-04-07T09:38:28.000Z","updated_at":"2016-10-18T16:30:02.000Z"},{"id":332,"account_id":79357,"user_id":79357,"name":"Kids","description":null,"parent_id":null,"depth":0,"node_children_count":0,"tree_children_count":0,"node_video_count":2,"tree_video_count":2,"created_at":"2015-04-07T09:38:46.000Z","updated_at":"2016-10-18T16:30:02.000Z"}],"meta":{"total_count":12,"links":{"first":"https://app.vzaar.localhost/api/v2/categories?page=1&per_page=2","next":"https://app.vzaar.localhost/api/v2/categories?page=2&per_page=2","previous":null,"last":"https://app.vzaar.localhost/api/v2/categories?page=6&per_page=2"}}}'
    http_version: 
  recorded_at: Fri, 18 Nov 2016 16:36:41 GMT
- request:
    method: get
    uri: https://app.vzaar.localhost/api/v2/categories
    body:
      encoding: UTF-8
      string: ''
    headers:
      User-Agent:
      - HTTPClient/1.0 (2.8.2.4, ruby 2.3.1 (2016-04-26))
      Accept:
      - "*/*"
      Date:
      - Fri, 18 Nov 2016 16:36:41 GMT
      X-Auth-Token:
      - TUGXzNL17ypaougMYpR3
      X-Client-Id:
      - lair-tend72
      Content-Type:
      - application/json
  response:
    status:
      code: 200
      message: OK
    headers:
      Server:
      - nginx/1.10.1
      Date:
      - Fri, 18 Nov 2016 16:36:41 GMT
      Content-Type:
      - application/json
      Content-Length:
      - '915'
      Connection:
      - keep-alive
      X-Ratelimit-Limit:
      - '200'
      X-Ratelimit-Remaining:
      - '198'
      X-Ratelimit-Reset:
      - '1479487061'
      X-Ratelimit-Reset-In:
      - 60 seconds
      Cache-Control:
      - no-store, must-revalidate, private, max-age=0
      X-Request-Id:
      - 06d412cb-6991-468f-8e2e-7e9a2470fec0
      X-Runtime:
      - '0.073150'
      Set-Cookie:
      - __profilin=p%3Dt; path=/
      - __profilin=p%3Dt; path=/
      - __profilin=p%3Dt; path=/
      X-Miniprofiler-Ids:
      - '["xd3eqfcaema09wi857z2","yibtuiqnohudk1d26xvg","cpo3oiqmi683pkcaj816","dtxr2heeicch5rud7pjt","b4scoosnvmo0xvyqw8fy","58r4vfxumrhgue7kbsai","5dfv6js4ggxyc9qp8qwk","luelw09036g1c3l24a6i","racr2kqe0uft8glynfol","yfqme9j3k1haf6v4sm35"]'
    body:
      encoding: UTF-8
      string: '{"data":[{"id":333,"account_id":79357,"user_id":79357,"name":"Outdoors","description":null,"parent_id":331,"depth":1,"node_children_count":0,"tree_children_count":0,"node_video_count":0,"tree_video_count":0,"created_at":"2015-04-07T09:38:55.000Z","updated_at":"2016-08-08T12:54:05.000Z"},{"id":334,"account_id":79357,"user_id":79357,"name":"Indoors","description":"All
        indoor videos","parent_id":331,"depth":1,"node_children_count":2,"tree_children_count":2,"node_video_count":2,"tree_video_count":3,"created_at":"2015-04-07T09:39:06.000Z","updated_at":"2016-10-18T16:29:11.000Z"}],"meta":{"total_count":12,"links":{"first":"https://app.vzaar.localhost/api/v2/categories?page=1&per_page=2","next":"https://app.vzaar.localhost/api/v2/categories?page=3&per_page=2","previous":"https://app.vzaar.localhost/api/v2/categories?page=1&per_page=2","last":"https://app.vzaar.localhost/api/v2/categories?page=6&per_page=2"}}}'
    http_version: 
  recorded_at: Fri, 18 Nov 2016 16:36:41 GMT
- request:
    method: get
    uri: https://app.vzaar.localhost/api/v2/categories
    body:
      encoding: UTF-8
      string: ''
    headers:
      User-Agent:
      - HTTPClient/1.0 (2.8.2.4, ruby 2.3.1 (2016-04-26))
      Accept:
      - "*/*"
      Date:
      - Fri, 18 Nov 2016 16:36:41 GMT
      X-Auth-Token:
      - TUGXzNL17ypaougMYpR3
      X-Client-Id:
      - lair-tend72
      Content-Type:
      - application/json
  response:
    status:
      code: 200
      message: OK
    headers:
      Server:
      - nginx/1.10.1
      Date:
      - Fri, 18 Nov 2016 16:36:41 GMT
      Content-Type:
      - application/json
      Content-Length:
      - '905'
      Connection:
      - keep-alive
      X-Ratelimit-Limit:
      - '200'
      X-Ratelimit-Remaining:
      - '197'
      X-Ratelimit-Reset:
      - '1479487061'
      X-Ratelimit-Reset-In:
      - 60 seconds
      Cache-Control:
      - no-store, must-revalidate, private, max-age=0
      X-Request-Id:
      - 0ea13fbf-e70d-4249-b27b-7df718cc3d53
      X-Runtime:
      - '0.063812'
      Set-Cookie:
      - __profilin=p%3Dt; path=/
      - __profilin=p%3Dt; path=/
      - __profilin=p%3Dt; path=/
      X-Miniprofiler-Ids:
      - '["gpp17n6eyowbqhljaixc","yibtuiqnohudk1d26xvg","cpo3oiqmi683pkcaj816","dtxr2heeicch5rud7pjt","b4scoosnvmo0xvyqw8fy","58r4vfxumrhgue7kbsai","5dfv6js4ggxyc9qp8qwk","luelw09036g1c3l24a6i","racr2kqe0uft8glynfol","yfqme9j3k1haf6v4sm35"]'
    body:
      encoding: UTF-8
      string: '{"data":[{"id":335,"account_id":79357,"user_id":79357,"name":"Test
        shizzle","description":null,"parent_id":null,"depth":0,"node_children_count":0,"tree_children_count":0,"node_video_count":2,"tree_video_count":2,"created_at":"2015-04-07T09:39:21.000Z","updated_at":"2016-10-18T16:30:02.000Z"},{"id":336,"account_id":79357,"user_id":79357,"name":"Travel","description":null,"parent_id":null,"depth":0,"node_children_count":0,"tree_children_count":0,"node_video_count":4,"tree_video_count":4,"created_at":"2015-04-07T09:47:38.000Z","updated_at":"2016-10-18T16:30:02.000Z"}],"meta":{"total_count":12,"links":{"first":"https://app.vzaar.localhost/api/v2/categories?page=1&per_page=2","next":"https://app.vzaar.localhost/api/v2/categories?page=4&per_page=2","previous":"https://app.vzaar.localhost/api/v2/categories?page=2&per_page=2","last":"https://app.vzaar.localhost/api/v2/categories?page=6&per_page=2"}}}'
    http_version: 
  recorded_at: Fri, 18 Nov 2016 16:36:41 GMT
- request:
    method: get
    uri: https://app.vzaar.localhost/api/v2/categories
    body:
      encoding: UTF-8
      string: ''
    headers:
      User-Agent:
      - HTTPClient/1.0 (2.8.2.4, ruby 2.3.1 (2016-04-26))
      Accept:
      - "*/*"
      Date:
      - Fri, 18 Nov 2016 16:36:41 GMT
      X-Auth-Token:
      - TUGXzNL17ypaougMYpR3
      X-Client-Id:
      - lair-tend72
      Content-Type:
      - application/json
  response:
    status:
      code: 200
      message: OK
    headers:
      Server:
      - nginx/1.10.1
      Date:
      - Fri, 18 Nov 2016 16:36:41 GMT
      Content-Type:
      - application/json
      Content-Length:
      - '897'
      Connection:
      - keep-alive
      X-Ratelimit-Limit:
      - '200'
      X-Ratelimit-Remaining:
      - '196'
      X-Ratelimit-Reset:
      - '1479487061'
      X-Ratelimit-Reset-In:
      - 60 seconds
      Cache-Control:
      - no-store, must-revalidate, private, max-age=0
      X-Request-Id:
      - 88959a27-bfcc-4e6e-a09c-d34aec01e384
      X-Runtime:
      - '0.094007'
      Set-Cookie:
      - __profilin=p%3Dt; path=/
      - __profilin=p%3Dt; path=/
      - __profilin=p%3Dt; path=/
      X-Miniprofiler-Ids:
      - '["j8jpqpuatc5a0465o4ia","yibtuiqnohudk1d26xvg","cpo3oiqmi683pkcaj816","dtxr2heeicch5rud7pjt","b4scoosnvmo0xvyqw8fy","58r4vfxumrhgue7kbsai","5dfv6js4ggxyc9qp8qwk","luelw09036g1c3l24a6i","racr2kqe0uft8glynfol","yfqme9j3k1haf6v4sm35"]'
    body:
      encoding: UTF-8
      string: '{"data":[{"id":2232,"account_id":79357,"user_id":94482,"name":"PT","description":null,"parent_id":null,"depth":0,"node_children_count":0,"tree_children_count":0,"node_video_count":0,"tree_video_count":0,"created_at":"2016-08-08T12:46:50.000Z","updated_at":"2016-08-08T12:46:50.000Z"},{"id":2233,"account_id":79357,"user_id":79357,"name":"My
        room","description":null,"parent_id":334,"depth":2,"node_children_count":0,"tree_children_count":0,"node_video_count":1,"tree_video_count":1,"created_at":"2016-10-18T16:29:04.000Z","updated_at":"2016-10-18T16:29:05.000Z"}],"meta":{"total_count":12,"links":{"first":"https://app.vzaar.localhost/api/v2/categories?page=1&per_page=2","next":"https://app.vzaar.localhost/api/v2/categories?page=5&per_page=2","previous":"https://app.vzaar.localhost/api/v2/categories?page=3&per_page=2","last":"https://app.vzaar.localhost/api/v2/categories?page=6&per_page=2"}}}'
    http_version: 
  recorded_at: Fri, 18 Nov 2016 16:36:41 GMT
- request:
    method: get
    uri: https://app.vzaar.localhost/api/v2/categories
    body:
      encoding: UTF-8
      string: ''
    headers:
      User-Agent:
      - HTTPClient/1.0 (2.8.2.4, ruby 2.3.1 (2016-04-26))
      Accept:
      - "*/*"
      Date:
      - Fri, 18 Nov 2016 16:36:41 GMT
      X-Auth-Token:
      - TUGXzNL17ypaougMYpR3
      X-Client-Id:
      - lair-tend72
      Content-Type:
      - application/json
  response:
    status:
      code: 200
      message: OK
    headers:
      Server:
      - nginx/1.10.1
      Date:
      - Fri, 18 Nov 2016 16:36:41 GMT
      Content-Type:
      - application/json
      Content-Length:
      - '907'
      Connection:
      - keep-alive
      X-Ratelimit-Limit:
      - '200'
      X-Ratelimit-Remaining:
      - '195'
      X-Ratelimit-Reset:
      - '1479487061'
      X-Ratelimit-Reset-In:
      - 60 seconds
      Cache-Control:
      - no-store, must-revalidate, private, max-age=0
      X-Request-Id:
      - 3141b2c3-f2c9-4eaf-8b6b-5ac0bea89092
      X-Runtime:
      - '0.061983'
      Set-Cookie:
      - __profilin=p%3Dt; path=/
      - __profilin=p%3Dt; path=/
      - __profilin=p%3Dt; path=/
      X-Miniprofiler-Ids:
      - '["mrm3wrmw9721eaq57f39","yibtuiqnohudk1d26xvg","cpo3oiqmi683pkcaj816","dtxr2heeicch5rud7pjt","b4scoosnvmo0xvyqw8fy","58r4vfxumrhgue7kbsai","5dfv6js4ggxyc9qp8qwk","luelw09036g1c3l24a6i","racr2kqe0uft8glynfol","yfqme9j3k1haf6v4sm35"]'
    body:
      encoding: UTF-8
      string: '{"data":[{"id":2234,"account_id":79357,"user_id":79357,"name":"Your
        room","description":null,"parent_id":334,"depth":2,"node_children_count":0,"tree_children_count":0,"node_video_count":0,"tree_video_count":0,"created_at":"2016-10-18T16:29:10.000Z","updated_at":"2016-10-18T16:29:11.000Z"},{"id":2235,"account_id":79357,"user_id":79357,"name":"Outer
        space","description":null,"parent_id":331,"depth":1,"node_children_count":0,"tree_children_count":0,"node_video_count":0,"tree_video_count":0,"created_at":"2016-10-18T16:30:01.000Z","updated_at":"2016-10-18T16:30:02.000Z"}],"meta":{"total_count":12,"links":{"first":"https://app.vzaar.localhost/api/v2/categories?page=1&per_page=2","next":"https://app.vzaar.localhost/api/v2/categories?page=6&per_page=2","previous":"https://app.vzaar.localhost/api/v2/categories?page=4&per_page=2","last":"https://app.vzaar.localhost/api/v2/categories?page=6&per_page=2"}}}'
    http_version: 
  recorded_at: Fri, 18 Nov 2016 16:36:41 GMT
- request:
    method: get
    uri: https://app.vzaar.localhost/api/v2/categories
    body:
      encoding: UTF-8
      string: ''
    headers:
      User-Agent:
      - HTTPClient/1.0 (2.8.2.4, ruby 2.3.1 (2016-04-26))
      Accept:
      - "*/*"
      Date:
      - Fri, 18 Nov 2016 16:36:41 GMT
      X-Auth-Token:
      - TUGXzNL17ypaougMYpR3
      X-Client-Id:
      - lair-tend72
      Content-Type:
      - application/json
  response:
    status:
      code: 200
      message: OK
    headers:
      Server:
      - nginx/1.10.1
      Date:
      - Fri, 18 Nov 2016 16:36:41 GMT
      Content-Type:
      - application/json
      Content-Length:
      - '839'
      Connection:
      - keep-alive
      X-Ratelimit-Limit:
      - '200'
      X-Ratelimit-Remaining:
      - '194'
      X-Ratelimit-Reset:
      - '1479487061'
      X-Ratelimit-Reset-In:
      - 60 seconds
      Cache-Control:
      - no-store, must-revalidate, private, max-age=0
      X-Request-Id:
      - 3285b3fc-fdbe-4c7c-afe6-bfe82a8c4590
      X-Runtime:
      - '0.060019'
      Set-Cookie:
      - __profilin=p%3Dt; path=/
      - __profilin=p%3Dt; path=/
      - __profilin=p%3Dt; path=/
      X-Miniprofiler-Ids:
      - '["n6zc26dff02074i9rhtq","yibtuiqnohudk1d26xvg","cpo3oiqmi683pkcaj816","dtxr2heeicch5rud7pjt","b4scoosnvmo0xvyqw8fy","58r4vfxumrhgue7kbsai","5dfv6js4ggxyc9qp8qwk","luelw09036g1c3l24a6i","racr2kqe0uft8glynfol","yfqme9j3k1haf6v4sm35"]'
    body:
      encoding: UTF-8
      string: '{"data":[{"id":2236,"account_id":79357,"user_id":79357,"name":"Ziggy","description":null,"parent_id":null,"depth":0,"node_children_count":1,"tree_children_count":1,"node_video_count":0,"tree_video_count":0,"created_at":"2016-10-19T10:39:07.000Z","updated_at":"2016-10-19T10:40:23.000Z"},{"id":2237,"account_id":79357,"user_id":79357,"name":"Boogie","description":null,"parent_id":2236,"depth":1,"node_children_count":0,"tree_children_count":0,"node_video_count":0,"tree_video_count":0,"created_at":"2016-10-19T10:40:23.000Z","updated_at":"2016-10-19T10:40:23.000Z"}],"meta":{"total_count":12,"links":{"first":"https://app.vzaar.localhost/api/v2/categories?page=1&per_page=2","next":null,"previous":"https://app.vzaar.localhost/api/v2/categories?page=5&per_page=2","last":"https://app.vzaar.localhost/api/v2/categories?page=6&per_page=2"}}}'
    http_version: 
  recorded_at: Fri, 18 Nov 2016 16:36:41 GMT
recorded_with: VCR 3.0.3
