---
http_interactions:
- request:
    method: get
    uri: https://app.vzaar.localhost/api/v2/categories?per_page=2
    body:
      encoding: UTF-8
      string: ''
    headers:
      User-Agent:
      - HTTPClient/1.0 (2.8.2.4, ruby 2.3.1 (2016-04-26))
      Accept:
      - "*/*"
      Date:
      - Thu, 27 Oct 2016 14:30:55 GMT
      X-Auth-Token:
      - TUGXzNL17ypaougMYpR3
      X-Client-Id:
      - lair-tend72
  response:
    status:
      code: 200
      message: OK
    headers:
      Server:
      - nginx/1.10.1
      Date:
      - Thu, 27 Oct 2016 14:30:55 GMT
      Content-Type:
      - application/json
      Content-Length:
      - '828'
      Connection:
      - keep-alive
      X-Ratelimit-Limit:
      - '200'
      X-Ratelimit-Remaining:
      - '199'
      X-Ratelimit-Reset:
      - '1477578715'
      X-Ratelimit-Reset-In:
      - 60 seconds
      Cache-Control:
      - no-store, must-revalidate, private, max-age=0
      X-Request-Id:
      - f61c1251-09c2-47a2-bd16-4d3834ba656e
      X-Runtime:
      - '0.113410'
      Set-Cookie:
      - __profilin=p%3Dt; path=/
      - __profilin=p%3Dt; path=/
      - __profilin=p%3Dt; path=/
      X-Miniprofiler-Ids:
      - '["vbeuauig2dkult7iwd88","4cgrjuu9znv5flechaye","xnttqh4f6tb6mlow6fqp","51m8dv0qththvbewgq13","x64kuijqm7wvs2v4hn7w","huk6yekaaonvewr8gorm"]'
    body:
      encoding: UTF-8
      string: '{"data":[{"id":331,"account_id":79357,"user_id":79357,"name":"Overload
        Fitness","description":null,"parent_id":null,"depth":0,"node_children_count":3,"tree_children_count":5,"node_video_count":3,"tree_video_count":6,"created_at":"2015-04-07T09:38:28.000Z","updated_at":"2016-10-18T16:30:02.000Z"},{"id":332,"account_id":79357,"user_id":79357,"name":"Kids","description":null,"parent_id":null,"depth":0,"node_children_count":0,"tree_children_count":0,"node_video_count":2,"tree_video_count":2,"created_at":"2015-04-07T09:38:46.000Z","updated_at":"2016-10-18T16:30:02.000Z"}],"meta":{"total_count":12,"links":{"first":"https://app.vzaar.localhost/api/v2/categories","next":"https://app.vzaar.localhost/api/v2/categories?page=2&per_page=2","previous":null,"last":"https://app.vzaar.localhost/api/v2/categories?page=6&per_page=2"}}}'
    http_version: 
  recorded_at: Thu, 27 Oct 2016 14:30:55 GMT
recorded_with: VCR 3.0.3
