---
http_interactions:
- request:
    method: get
    uri: https://app.vzaar.localhost/api/v2/categories?per_page=3
    body:
      encoding: UTF-8
      string: ''
    headers:
      User-Agent:
      - HTTPClient/1.0 (2.8.2.4, ruby 2.3.1 (2016-04-26))
      Accept:
      - "*/*"
      Date:
      - Fri, 28 Oct 2016 14:27:12 GMT
      X-Auth-Token:
      - TUGXzNL17ypaougMYpR3
      X-Client-Id:
      - lair-tend72
  response:
    status:
      code: 200
      message: OK
    headers:
      Server:
      - nginx/1.10.1
      Date:
      - Fri, 28 Oct 2016 14:27:13 GMT
      Content-Type:
      - application/json
      Content-Length:
      - '1107'
      Connection:
      - keep-alive
      X-RateLimit-Limit:
      - '200'
      X-RateLimit-Remaining:
      - '196'
      X-RateLimit-Reset:
      - '1477664892'
      X-RateLimit-Reset-In:
      - 60 seconds
      Cache-Control:
      - no-store, must-revalidate, private, max-age=0
      X-Request-Id:
      - 36e3b3e8-7897-461a-a974-d6786e8b8019
      X-Runtime:
      - '0.091143'
      Set-Cookie:
      - __profilin=p%3Dt; path=/
      - __profilin=p%3Dt; path=/
      - __profilin=p%3Dt; path=/
      X-Miniprofiler-Ids:
      - '["sznobxstvf0k87i4yveb","4cgrjuu9znv5flechaye","xnttqh4f6tb6mlow6fqp","51m8dv0qththvbewgq13","x64kuijqm7wvs2v4hn7w","huk6yekaaonvewr8gorm","vbeuauig2dkult7iwd88","20346z4sk0xdmgjxe013","ojqf7ud6fx3fp4ugy5qy","a3g9j8ng0wd0z95f8byp"]'
    body:
      encoding: UTF-8
      string: '{"data":[{"id":331,"account_id":79357,"user_id":79357,"name":"Overload
        Fitness","description":null,"parent_id":null,"depth":0,"node_children_count":3,"tree_children_count":5,"node_video_count":3,"tree_video_count":6,"created_at":"2015-04-07T09:38:28.000Z","updated_at":"2016-10-18T16:30:02.000Z"},{"id":332,"account_id":79357,"user_id":79357,"name":"Kids","description":null,"parent_id":null,"depth":0,"node_children_count":0,"tree_children_count":0,"node_video_count":2,"tree_video_count":2,"created_at":"2015-04-07T09:38:46.000Z","updated_at":"2016-10-18T16:30:02.000Z"},{"id":333,"account_id":79357,"user_id":79357,"name":"Outdoors","description":null,"parent_id":331,"depth":1,"node_children_count":0,"tree_children_count":0,"node_video_count":0,"tree_video_count":0,"created_at":"2015-04-07T09:38:55.000Z","updated_at":"2016-08-08T12:54:05.000Z"}],"meta":{"total_count":12,"links":{"first":"https://app.vzaar.localhost/api/v2/categories","next":"https://app.vzaar.localhost/api/v2/categories?page=2&per_page=3","previous":null,"last":"https://app.vzaar.localhost/api/v2/categories?page=4&per_page=3"}}}'
    http_version:
  recorded_at: Fri, 28 Oct 2016 14:27:13 GMT
- request:
    method: get
    uri: https://app.vzaar.localhost/api/v2/categories
    body:
      encoding: UTF-8
      string: ''
    headers:
      User-Agent:
      - HTTPClient/1.0 (2.8.2.4, ruby 2.3.1 (2016-04-26))
      Accept:
      - "*/*"
      Date:
      - Fri, 28 Oct 2016 14:27:13 GMT
      X-Auth-Token:
      - TUGXzNL17ypaougMYpR3
      X-Client-Id:
      - lair-tend72
  response:
    status:
      code: 200
      message: OK
    headers:
      Server:
      - nginx/1.10.1
      Date:
      - Fri, 28 Oct 2016 14:27:13 GMT
      Content-Type:
      - application/json
      Content-Length:
      - '1104'
      Connection:
      - keep-alive
      X-RateLimit-Limit:
      - '200'
      X-RateLimit-Remaining:
      - '195'
      X-RateLimit-Reset:
      - '1477664893'
      X-RateLimit-Reset-In:
      - 60 seconds
      Cache-Control:
      - no-store, must-revalidate, private, max-age=0
      X-Request-Id:
      - af9015b1-3607-463c-a4ff-876088634cb1
      X-Runtime:
      - '0.077256'
      Set-Cookie:
      - __profilin=p%3Dt; path=/
      - __profilin=p%3Dt; path=/
      - __profilin=p%3Dt; path=/
      X-Miniprofiler-Ids:
      - '["mt29oe1q76nsmkgle832","4cgrjuu9znv5flechaye","xnttqh4f6tb6mlow6fqp","51m8dv0qththvbewgq13","x64kuijqm7wvs2v4hn7w","huk6yekaaonvewr8gorm","vbeuauig2dkult7iwd88","20346z4sk0xdmgjxe013","ojqf7ud6fx3fp4ugy5qy","a3g9j8ng0wd0z95f8byp"]'
    body:
      encoding: UTF-8
      string: '{"data":[{"id":2235,"account_id":79357,"user_id":79357,"name":"Outer
        space","description":null,"parent_id":331,"depth":1,"node_children_count":0,"tree_children_count":0,"node_video_count":0,"tree_video_count":0,"created_at":"2016-10-18T16:30:01.000Z","updated_at":"2016-10-18T16:30:02.000Z"},{"id":2236,"account_id":79357,"user_id":79357,"name":"Ziggy","description":null,"parent_id":null,"depth":0,"node_children_count":1,"tree_children_count":1,"node_video_count":0,"tree_video_count":0,"created_at":"2016-10-19T10:39:07.000Z","updated_at":"2016-10-19T10:40:23.000Z"},{"id":2237,"account_id":79357,"user_id":79357,"name":"Boogie","description":null,"parent_id":2236,"depth":1,"node_children_count":0,"tree_children_count":0,"node_video_count":0,"tree_video_count":0,"created_at":"2016-10-19T10:40:23.000Z","updated_at":"2016-10-19T10:40:23.000Z"}],"meta":{"total_count":12,"links":{"first":"https://app.vzaar.localhost/api/v2/categories","next":null,"previous":"https://app.vzaar.localhost/api/v2/categories?page=3&per_page=3","last":"https://app.vzaar.localhost/api/v2/categories?page=4&per_page=3"}}}'
    http_version:
  recorded_at: Fri, 28 Oct 2016 14:27:13 GMT
recorded_with: VCR 3.0.3
