---
http_interactions:
- request:
    method: get
    uri: https://app.vzaar.localhost/api/v2/videos/14370501/subtitles/?page=1&per_page=1
    body:
      encoding: UTF-8
      string: ''
    headers:
      User-Agent:
      - HTTPClient/1.0 (2.8.3, ruby 2.3.0 (2015-12-25))
      Accept:
      - "*/*"
      Date:
      - Thu, 06 Dec 2018 16:14:34 GMT
      X-Auth-Token:
      - pVrjGuKWP27U_kz4anfy
      X-Client-Id:
      - glide-franca-raise
      Content-Type:
      - application/json
  response:
    status:
      code: 200
      message: OK
    headers:
      Cache-Control:
      - max-age=0, private, must-revalidate
      Content-Type:
      - application/json
      Date:
      - Thu, 06 Dec 2018 16:14:34 GMT
      Etag:
      - W/"81da6eae4099f0c3cb8678f7f1b3b92d"
      Server:
      - nginx
      X-Ratelimit-Limit:
      - '200'
      X-Ratelimit-Remaining:
      - '199'
      X-Ratelimit-Reset:
      - '1544112900'
      X-Ratelimit-Reset-In:
      - 26 seconds
      X-Request-Id:
      - 17036ba1-4fb4-4200-b87f-cf2567139415
      X-Runtime:
      - '0.023001'
      Content-Length:
      - '543'
      Connection:
      - keep-alive
    body:
      encoding: UTF-8
      string: '{"data":[{"id":26864,"language":"Serbian","code":"sr","title":"14370501-sr.srt","url":"https://view.vzaar.localhost/subtitles/26864","created_at":"2018-12-04T09:30:34.000Z","updated_at":"2018-12-06T15:58:45.000Z"}],"meta":{"total_count":3,"links":{"first":"https://app.vzaar.localhost/api/v2/videos/14370501/subtitles?id=14370501&page=1&per_page=1","next":"https://app.vzaar.localhost/api/v2/videos/14370501/subtitles?id=14370501&page=2&per_page=1","previous":null,"last":"https://app.vzaar.localhost/api/v2/videos/14370501/subtitles?id=14370501&page=3&per_page=1"}}}'
    http_version:
  recorded_at: Thu, 06 Dec 2018 16:14:34 GMT
- request:
    method: get
    uri: https://app.vzaar.localhost/api/v2/videos/14370501/subtitles
    body:
      encoding: UTF-8
      string: ''
    headers:
      User-Agent:
      - HTTPClient/1.0 (2.8.3, ruby 2.3.0 (2015-12-25))
      Accept:
      - "*/*"
      Date:
      - Thu, 06 Dec 2018 16:14:34 GMT
      X-Auth-Token:
      - pVrjGuKWP27U_kz4anfy
      X-Client-Id:
      - glide-franca-raise
      Content-Type:
      - application/json
  response:
    status:
      code: 200
      message: OK
    headers:
      Cache-Control:
      - max-age=0, private, must-revalidate
      Content-Type:
      - application/json
      Date:
      - Thu, 06 Dec 2018 16:14:35 GMT
      Etag:
      - W/"655cb883805e72172700870a00a2cceb"
      Server:
      - nginx
      X-Ratelimit-Limit:
      - '200'
      X-Ratelimit-Remaining:
      - '198'
      X-Ratelimit-Reset:
      - '1544112900'
      X-Ratelimit-Reset-In:
      - 25 seconds
      X-Request-Id:
      - 831fc446-0566-41a4-9c61-fc8f54075c6c
      X-Runtime:
      - '0.044178'
      Content-Length:
      - '542'
      Connection:
      - keep-alive
    body:
      encoding: UTF-8
      string: '{"data":[{"id":26888,"language":"Polish","code":"pl","title":"14370501-pl.vtt","url":"https://view.vzaar.localhost/subtitles/26888","created_at":"2018-12-06T14:33:29.000Z","updated_at":"2018-12-06T14:33:33.000Z"}],"meta":{"total_count":3,"links":{"first":"https://app.vzaar.localhost/api/v2/videos/14370501/subtitles?id=14370501&page=1&per_page=1","next":null,"previous":"https://app.vzaar.localhost/api/v2/videos/14370501/subtitles?id=14370501&page=2&per_page=1","last":"https://app.vzaar.localhost/api/v2/videos/14370501/subtitles?id=14370501&page=3&per_page=1"}}}'
    http_version:
  recorded_at: Thu, 06 Dec 2018 16:14:35 GMT
recorded_with: VCR 3.0.3
