---
http_interactions:
- request:
    method: get
    uri: https://app.vzaar.localhost/api/v2/videos/14370501/subtitles/?page=1&per_page=1
    body:
      encoding: UTF-8
      string: ''
    headers:
      User-Agent:
      - HTTPClient/1.0 (2.8.3, ruby 2.3.0 (2015-12-25))
      Accept:
      - "*/*"
      Date:
      - Thu, 06 Dec 2018 16:10:00 GMT
      X-Auth-Token:
      - pVrjGuKWP27U_kz4anfy
      X-Client-Id:
      - glide-franca-raise
      Content-Type:
      - application/json
  response:
    status:
      code: 200
      message: OK
    headers:
      Cache-Control:
      - max-age=0, private, must-revalidate
      Content-Type:
      - application/json
      Date:
      - Thu, 06 Dec 2018 16:10:01 GMT
      Etag:
      - W/"81da6eae4099f0c3cb8678f7f1b3b92d"
      Server:
      - nginx
      X-Ratelimit-Limit:
      - '200'
      X-Ratelimit-Remaining:
      - '199'
      X-Ratelimit-Reset:
      - '1544112660'
      X-Ratelimit-Reset-In:
      - 59 seconds
      X-Request-Id:
      - b599a106-ba34-48ed-88cd-d85292bdb98d
      X-Runtime:
      - '0.035921'
      Content-Length:
      - '543'
      Connection:
      - keep-alive
    body:
      encoding: UTF-8
      string: '{"data":[{"id":26864,"language":"Serbian","code":"sr","title":"14370501-sr.srt","url":"https://view.vzaar.localhost/subtitles/26864","created_at":"2018-12-04T09:30:34.000Z","updated_at":"2018-12-06T15:58:45.000Z"}],"meta":{"total_count":3,"links":{"first":"https://app.vzaar.localhost/api/v2/videos/14370501/subtitles?id=14370501&page=1&per_page=1","next":"https://app.vzaar.localhost/api/v2/videos/14370501/subtitles?id=14370501&page=2&per_page=1","previous":null,"last":"https://app.vzaar.localhost/api/v2/videos/14370501/subtitles?id=14370501&page=3&per_page=1"}}}'
    http_version:
  recorded_at: Thu, 06 Dec 2018 16:10:01 GMT
- request:
    method: get
    uri: https://app.vzaar.localhost/api/v2/videos/14370501/subtitles
    body:
      encoding: UTF-8
      string: ''
    headers:
      User-Agent:
      - HTTPClient/1.0 (2.8.3, ruby 2.3.0 (2015-12-25))
      Accept:
      - "*/*"
      Date:
      - Thu, 06 Dec 2018 16:10:07 GMT
      X-Auth-Token:
      - pVrjGuKWP27U_kz4anfy
      X-Client-Id:
      - glide-franca-raise
      Content-Type:
      - application/json
  response:
    status:
      code: 200
      message: OK
    headers:
      Cache-Control:
      - max-age=0, private, must-revalidate
      Content-Type:
      - application/json
      Date:
      - Thu, 06 Dec 2018 16:10:08 GMT
      Etag:
      - W/"6f99df74c327f9989c50253e53c7cd2c"
      Server:
      - nginx
      X-Ratelimit-Limit:
      - '200'
      X-Ratelimit-Remaining:
      - '198'
      X-Ratelimit-Reset:
      - '1544112660'
      X-Ratelimit-Reset-In:
      - 52 seconds
      X-Request-Id:
      - d158999f-c51a-4447-80ac-643d5bd6b34b
      X-Runtime:
      - '0.020520'
      Content-Length:
      - '624'
      Connection:
      - keep-alive
    body:
      encoding: UTF-8
      string: '{"data":[{"id":26887,"language":"German","code":"de","title":"14370501-de.vtt","url":"https://view.vzaar.localhost/subtitles/26887","created_at":"2018-12-06T14:29:41.000Z","updated_at":"2018-12-06T14:29:43.000Z"}],"meta":{"total_count":3,"links":{"first":"https://app.vzaar.localhost/api/v2/videos/14370501/subtitles?id=14370501&page=1&per_page=1","next":"https://app.vzaar.localhost/api/v2/videos/14370501/subtitles?id=14370501&page=3&per_page=1","previous":"https://app.vzaar.localhost/api/v2/videos/14370501/subtitles?id=14370501&page=1&per_page=1","last":"https://app.vzaar.localhost/api/v2/videos/14370501/subtitles?id=14370501&page=3&per_page=1"}}}'
    http_version:
  recorded_at: Thu, 06 Dec 2018 16:10:08 GMT
recorded_with: VCR 3.0.3
